<svg xmlns="http://www.w3.org/2000/svg" width="200" height="200" viewBox="0 0 200 200">
  <title>product-09</title>
  <g>
    <polygon points="190 190 160 190 160 200 200 200 200 160 190 160 190 190" fill="#333"/>
    <polygon points="160 0 160 10 190 10 190 40 200 40 200 0 160 0" fill="#333"/>
    <g>
      <polygon points="10 160 0 160 0 200 40 200 40 190 10 190 10 160" fill="#333"/>
      <polygon points="0 0 0 40 10 40 10 10 40 10 40 0 0 0" fill="#333"/>
    </g>
    <path d="M160,85a15,15,0,0,0-14.13,10H105V54.13a15,15,0,1,0-10,0V95H54.13a15,15,0,1,0,0,10H95v40.87a15,15,0,1,0,10,0V105h40.87A15,15,0,1,0,160,85ZM40,105a5,5,0,1,1,5-5A5,5,0,0,1,40,105Zm60,60a5,5,0,1,1,5-5A5,5,0,0,1,100,165Zm0-120a5,5,0,1,1,5-5A5,5,0,0,1,100,45Zm60,60a5,5,0,1,1,5-5A5,5,0,0,1,160,105Z" fill="#333"/>
  </g>
</svg>
