<svg xmlns="http://www.w3.org/2000/svg" width="86" height="100" viewBox="0 0 86 100">
  <title>graphics-worker-10</title>
  <g>
    <polygon points="86 75 43 100 0 75 0 25 43 0 86 25 86 75" fill="#c5bda6"/>
    <polygon points="43 100 70.5 84.01 67.51 64.35 61.06 58.7 51.6 56.09 43 77.39 34.4 56.09 24.94 58.7 18.49 64.35 15.5 84.01 43 100" fill="#595652"/>
    <polygon points="51.17 55.65 43 57.83 34.83 55.65 34.4 56.09 43 77.39 51.6 56.09 51.17 55.65" fill="#fdfdfd"/>
    <polygon points="43 47.83 34.83 47.83 34.83 55.65 43 57.83 51.17 55.65 51.17 47.83 43 47.83" fill="#edb67f"/>
    <polygon points="61.06 58.7 51.6 56.09 43 77.39 34.4 56.09 24.94 58.7 24.94 69.56 22.36 77.39 24.94 84.78 24.94 89.5 43 100 61.06 89.5 61.06 84.78 63.64 77.39 61.06 69.56 61.06 58.7" fill="#a5a19b"/>
    <polygon points="22.36 77.39 24.94 84.78 61.06 84.78 63.64 77.39 22.36 77.39" opacity="0.1"/>
    <polygon points="50.09 24.35 44.51 22.17 35.91 24.35 29.45 36.52 29.45 66.09 32.03 68.69 32.03 72.17 38.05 76.52 35.48 69.56 35.48 37.83 41.92 35.65 47.52 30 48.8 35.22 50.52 36.52 50.52 69.56 47.95 76.52 53.97 72.17 53.97 68.69 56.55 66.09 56.55 36.52 50.09 24.35" fill="#5e2d25"/>
    <polygon points="49.45 35.22 47.73 29.57 42.14 35.22 33.97 38.26 33.97 45.22 35.26 46.52 35.26 48.26 39.13 53.91 43 54.78 46.87 53.91 50.74 48.26 50.74 46.52 52.03 45.22 52.03 38.26 49.45 35.22" fill="#fdc788"/>
    <g>
      <rect x="41.06" y="39.13" width="3.87" height="0.87" fill="#edb67f"/>
      <polyline points="41.06 41.3 41.49 38.26 36.34 38.26 35.91 41.3" fill="#fdfdfd"/>
      <polygon points="49.66 38.26 50.09 41.3 44.94 41.3 44.51 38.26 49.66 38.26" fill="#fdfdfd"/>
      <polygon points="40.2 38.26 36.34 38.26 35.91 41.3 37.2 41.3 40.2 38.26" opacity="0.1" style="isolation: isolate"/>
      <polygon points="49.23 38.26 44.51 38.26 44.94 41.3 46.23 41.3 49.23 38.26" opacity="0.1" style="isolation: isolate"/>
    </g>
    <polygon points="39.99 50 41.28 49.56 43 50 44.29 49.56 46.01 50 45.58 50.87 40.42 50.87 39.99 50" fill="#edb67f"/>
    <polygon points="40.84 72.06 43 77.39 45.15 72.06 43.86 62.61 44.72 59.56 43 57.83 41.28 59.56 42.14 62.61 40.84 72.06" fill="#757090"/>
    <polygon points="86 75 86 25 43 0 43 100 86 75" opacity="0.1" style="isolation: isolate"/>
  </g>
</svg>
