{
  "name": "order-form",
  "mixins": [
    {
      "tag": "div",
      "class": "form-messages",
      "mixin": "order-form__messages"
    }
  ],
  "dependencies": [
    "form-messages",
    "form-handler"
  ]
}