{
  "1": {
    "ID": 1,
    "NAME": "Резистор РБ-1",
    "NICKNAME": "Эдельвейс",
    "DONE": 0,
    "ON_DEMAND": 0,
    "VALUE": 50
  },
  "2": {
    "ID": 2,
    "NAME": "Антенна АМ-4",
    "NICKNAME": "Борей",
    "DONE": 0,
    "ON_DEMAND": 0,
    "VALUE": 40
  },
  "3": {
    "ID": 3,
    "NAME": "Транзистор Т28",
    "NICKNAME": "Солярис",
    "DONE": 0,
    "ON_DEMAND": 0,
    "VALUE": 20
  },
  "4": {
    "ID": 4,
    "NAME": "Радиоточка РС",
    "NICKNAME": "Звезда",
    "DONE": 0,
    "ON_DEMAND": 0,
    "VALUE": 280
  },
  "5": {
    "ID": 5,
    "NAME": "Тумблер 5Л",
    "NICKNAME": "Титан",
    "DONE": 0,
    "ON_DEMAND": 0,
    "VALUE": 10
  },
  "6": {
    "ID": 6,
    "NAME": "Отражатель ОБ",
    "NICKNAME": "Байкал",
    "DONE": 0,
    "ON_DEMAND": 0,
    "VALUE": 80
  },
  "7": {
    "ID": 7,
    "NAME": "Концентратор 10К",
    "NICKNAME": "Эльбрус",
    "DONE": 0,
    "ON_DEMAND": 0,
    "VALUE": 50
  },
  "8": {
    "ID": 8,
    "NAME": "Радиостанция РЗ",
    "NICKNAME": "Зенит",
    "DONE": 0,
    "ON_DEMAND": 0,
    "VALUE": 460
  },
  "9": {
    "ID": 9,
    "NAME": "Накопитель 6-1Н",
    "NICKNAME": "Олимп",
    "DONE": 0,
    "ON_DEMAND": 0,
    "VALUE": 40
  },
  "10": {
    "ID": 10,
    "NAME": "Усилитель УС-7",
    "NICKNAME": "Победа",
    "DONE": 0,
    "ON_DEMAND": 0,
    "VALUE": 20
  }
}