{
  "1": {
    "ID": 1,
    "SUPERVISOR_ID": 1,
    "PAYDAY": "10-APR-2017",
    "EFFORT_FROM_WORKERS": 0,
    "BONUS_FROM_WORKERS": 0,
    "FIXED_RATE": 28000
  },
  "2": {
    "ID": 2,
    "SUPERVISOR_ID": 2,
    "PAYDAY": "10-APR-2017",
    "EFFORT_FROM_WORKERS": 0,
    "BONUS_FROM_WORKERS": 0,
    "FIXED_RATE": 28000
  },
  "3": {
    "ID": 3,
    "SUPERVISOR_ID": 3,
    "PAYDAY": "10-APR-2017",
    "EFFORT_FROM_WORKERS": 0,
    "BONUS_FROM_WORKERS": 0,
    "FIXED_RATE": 20000
  }
}