{
  "1": {
    "ID": 1,
    "WORKER_ID": 1,
    "WAS_LEAD_ENGI_TOTAL": 0,
    "BONUS_TOTAL": 0,
    "WAS_LEAD_ENGI_LAST_MONTH": 0,
    "BONUS_LAST_MONTH": 0
  },
  "2": {
    "ID": 2,
    "WORKER_ID": 2,
    "WAS_LEAD_ENGI_TOTAL": 0,
    "BONUS_TOTAL": 0,
    "WAS_LEAD_ENGI_LAST_MONTH": 0,
    "BONUS_LAST_MONTH": 0
  },
  "3": {
    "ID": 3,
    "WORKER_ID": 3,
    "WAS_LEAD_ENGI_TOTAL": 0,
    "BONUS_TOTAL": 0,
    "WAS_LEAD_ENGI_LAST_MONTH": 0,
    "BONUS_LAST_MONTH": 0
  },
  "4": {
    "ID": 4,
    "WORKER_ID": 4,
    "WAS_LEAD_ENGI_TOTAL": 0,
    "BONUS_TOTAL": 0,
    "WAS_LEAD_ENGI_LAST_MONTH": 0,
    "BONUS_LAST_MONTH": 0
  },
  "5": {
    "ID": 5,
    "WORKER_ID": 5,
    "WAS_LEAD_ENGI_TOTAL": 0,
    "BONUS_TOTAL": 0,
    "WAS_LEAD_ENGI_LAST_MONTH": 0,
    "BONUS_LAST_MONTH": 0
  },
  "6": {
    "ID": 6,
    "WORKER_ID": 6,
    "WAS_LEAD_ENGI_TOTAL": 0,
    "BONUS_TOTAL": 0,
    "WAS_LEAD_ENGI_LAST_MONTH": 0,
    "BONUS_LAST_MONTH": 0
  },
  "7": {
    "ID": 7,
    "WORKER_ID": 7,
    "WAS_LEAD_ENGI_TOTAL": 0,
    "BONUS_TOTAL": 0,
    "WAS_LEAD_ENGI_LAST_MONTH": 0,
    "BONUS_LAST_MONTH": 0
  },
  "8": {
    "ID": 8,
    "WORKER_ID": 8,
    "WAS_LEAD_ENGI_TOTAL": 0,
    "BONUS_TOTAL": 0,
    "WAS_LEAD_ENGI_LAST_MONTH": 0,
    "BONUS_LAST_MONTH": 0
  },
  "9": {
    "ID": 9,
    "WORKER_ID": 9,
    "WAS_LEAD_ENGI_TOTAL": 0,
    "BONUS_TOTAL": 0,
    "WAS_LEAD_ENGI_LAST_MONTH": 0,
    "BONUS_LAST_MONTH": 0
  }
}