<svg xmlns="http://www.w3.org/2000/svg" width="200" height="200" viewBox="0 0 200 200">
  <title>product-03</title>
  <g>
    <path d="M40,0,0,40V200H160l40-40V0ZM190,155.86,155.86,190H17.07l16.47-16.47a15,15,0,1,0-7.07-7.07L10,182.93V44.14L44.14,10H182.93L166.45,26.48a15,15,0,1,0,7.07,7.07L190,17.07Z" fill="#333"/>
    <path d="M160,85a15,15,0,0,0-13.53,21.45l-40,40a15,15,0,1,0,7.07,7.07l40-40A15,15,0,1,0,160,85Z" fill="#333"/>
    <path d="M100,25A15,15,0,0,0,86.48,46.45l-40,40a15,15,0,1,0,7.07,7.07l40-40A15,15,0,1,0,100,25Z" fill="#333"/>
    <path d="M124.75,82.32l-7.07-7.07L106.45,86.48a15,15,0,0,0-20,20L75.25,117.68l7.07,7.07,11.22-11.22a15,15,0,0,0,20-20ZM100,105a5,5,0,1,1,5-5A5,5,0,0,1,100,105Z" fill="#333"/>
  </g>
</svg>
