<svg xmlns="http://www.w3.org/2000/svg" width="200" height="200" viewBox="0 0 200 200">
  <title>product-02</title>
  <g>
    <path d="M0,0V200H200V0ZM190,190H105V130h25V120H70v10H95v60H10V10H95V70H70V80h60V70H105V10h85Z" fill="#333"/>
    <path d="M165,145.87V54.13a15,15,0,1,0-10,0v91.74a15,15,0,1,0,10,0ZM160,35a5,5,0,1,1-5,5A5,5,0,0,1,160,35Zm0,130a5,5,0,1,1,5-5A5,5,0,0,1,160,165Z" fill="#333"/>
    <path d="M45,145.87V54.13a15,15,0,1,0-10,0v91.74a15,15,0,1,0,10,0ZM40,35a5,5,0,1,1-5,5A5,5,0,0,1,40,35Zm0,130a5,5,0,1,1,5-5A5,5,0,0,1,40,165Z" fill="#333"/>
  </g>
</svg>
