<svg xmlns="http://www.w3.org/2000/svg" width="200" height="200" viewBox="0 0 200 200">
  <title>product-04</title>
  <g>
    <circle cx="100" cy="100" r="15" fill="#333"/>
    <path d="M45,100A54.83,54.83,0,0,1,61.11,61.11L54,54A65,65,0,0,0,54,146l7.07-7.07A54.83,54.83,0,0,1,45,100Z" fill="#333"/>
    <path d="M70,100a29.9,29.9,0,0,1,8.79-21.21l-7.07-7.07a40,40,0,0,0,0,56.57l7.07-7.07A29.91,29.91,0,0,1,70,100Z" fill="#333"/>
    <path d="M128.28,71.72l-7.07,7.07a30,30,0,0,1,0,42.43l7.07,7.07a40,40,0,0,0,0-56.57Z" fill="#333"/>
    <path d="M146,54l-7.07,7.07a55,55,0,0,1,0,77.78L146,146A65,65,0,0,0,146,54Z" fill="#333"/>
    <path d="M115,0a15,15,0,0,1-15,15A15,15,0,0,1,85,0H0V200H85a15,15,0,0,1,30,0h85V0Zm75,190H140l-40-40L60,190H10V10H60l40,40,40-40h50Z" fill="#333"/>
  </g>
</svg>
