<svg xmlns="http://www.w3.org/2000/svg" width="200" height="200" viewBox="0 0 200 200">
  <title>product-10</title>
  <g>
    <path d="M0,0V200H200V0ZM190,190H10V10H190Z" fill="#333"/>
    <circle cx="40" cy="100" r="15" fill="#333"/>
    <circle cx="100" cy="100" r="15" fill="#333"/>
    <circle cx="100" cy="160" r="15" fill="#333"/>
    <circle cx="100" cy="40" r="15" fill="#333"/>
    <circle cx="160" cy="100" r="15" fill="#333"/>
    <circle cx="160" cy="160" r="15" fill="#333"/>
    <circle cx="160" cy="40" r="15" fill="#333"/>
    <circle cx="40" cy="160" r="15" fill="#333"/>
    <circle cx="40" cy="40" r="15" fill="#333"/>
  </g>
</svg>
