<svg xmlns="http://www.w3.org/2000/svg" width="200" height="200" viewBox="0 0 200 200">
  <title>product-06</title>
  <g>
    <polygon points="190 40 200 40 200 0 160 0 160 10 190 10 190 40" fill="#333"/>
    <polygon points="190 160 190 190 160 190 160 200 200 200 200 160 190 160" fill="#333"/>
    <polygon points="10 160 0 160 0 200 40 200 40 190 10 190 10 160" fill="#333"/>
    <polygon points="0 0 0 40 10 40 10 10 40 10 40 0 0 0" fill="#333"/>
    <path d="M160,85a14.92,14.92,0,0,0-6.45,1.48l-40-40a15,15,0,1,0-27,0l-40,40a15,15,0,1,0,0,27.05l40,40a15,15,0,1,0,27,0l40-40A15,15,0,1,0,160,85ZM40,105a5,5,0,1,1,5-5A5,5,0,0,1,40,105Zm60-70a5,5,0,1,1-5,5A5,5,0,0,1,100,35Zm0,130a5,5,0,1,1,5-5A5,5,0,0,1,100,165Zm46.47-58.55-40,40a14.85,14.85,0,0,0-12.91,0l-40-40a14.86,14.86,0,0,0,0-12.91l40-40a14.86,14.86,0,0,0,12.91,0l40,40a14.86,14.86,0,0,0,0,12.91ZM160,105a5,5,0,1,1,5-5A5,5,0,0,1,160,105Z" fill="#333"/>
  </g>
</svg>
