<svg xmlns="http://www.w3.org/2000/svg" width="110" height="250" viewBox="0 0 110 250">
  <title>graphics-tower</title>
  <g>
    <g>
      <path d="M55,139.15a4.07,4.07,0,0,1-2.61-.94L36.66,125.15l5.21-6L55,130.06l13.12-10.9,5.21,6L57.61,138.22A4.08,4.08,0,0,1,55,139.15Z" fill="#8b7e7f"/>
      <path d="M55,184a4.08,4.08,0,0,1-2.28-.69L23.58,163.65c-1.83-1.23,2.74-7.71,4.57-6.47L55,175.26l26.85-18.08c1.83-1.23,6.4,5.24,4.57,6.47L57.29,183.27A4.1,4.1,0,0,1,55,184Z" fill="#8b7e7f"/>
      <path d="M55,228.77a4.09,4.09,0,0,1-2-.53L9.82,203.81c-1.92-1.09,2.11-7.89,4-6.8L55,220.3,96.14,197c1.92-1.09,6,5.71,4,6.8L57,228.24A4.09,4.09,0,0,1,55,228.77Z" fill="#8b7e7f"/>
    </g>
    <path d="M55,107.44c-30.33,0-55-24.1-55-53.72S24.67,0,55,0s55,24.1,55,53.72S85.33,107.44,55,107.44ZM55,7.86C29.11,7.86,8,28.43,8,53.72S29.11,99.58,55,99.58,102,79,102,53.72,80.89,7.86,55,7.86Z" fill="#fee191"/>
    <path d="M55,86.48c-18.49,0-33.54-14.69-33.54-32.76S36.51,21,55,21,88.54,35.66,88.54,53.72,73.49,86.48,55,86.48Zm0-57.65c-14.05,0-25.49,11.17-25.49,24.9S40.95,78.62,55,78.62,80.49,67.45,80.49,53.72,69.05,28.83,55,28.83Z" fill="#ffd24d"/>
    <path d="M109,219.21,59,76.65V56.34H51V76.65L1,219.22a3.91,3.91,0,0,0,2.5,5,4.12,4.12,0,0,0,1.3.21,4,4,0,0,0,3.81-2.66L51,100.92V246.07a4,4,0,0,0,8,0V100.92l42.37,120.84a4,4,0,0,0,5.11,2.44A3.91,3.91,0,0,0,109,219.21Z" fill="#605353"/>
    <ellipse cx="55" cy="53.72" rx="8.05" ry="7.86" fill="#f14742"/>
  </g>
</svg>
