<svg xmlns="http://www.w3.org/2000/svg" width="200" height="200" viewBox="0 0 200 200">
  <title>product-08</title>
  <g>
    <rect x="75" y="140" width="10" height="10" fill="#333"/>
    <rect x="115" y="140" width="10" height="10" fill="#333"/>
    <rect x="95" y="140" width="10" height="10" fill="#333"/>
    <rect x="75" y="140" width="10" height="10" fill="#333"/>
    <rect x="115" y="140" width="10" height="10" fill="#333"/>
    <rect x="95" y="140" width="10" height="10" fill="#333"/>
    <rect x="50" y="115" width="10" height="10" fill="#333"/>
    <rect x="50" y="75" width="10" height="10" fill="#333"/>
    <rect x="50" y="95" width="10" height="10" fill="#333"/>
    <rect x="140" y="115" width="10" height="10" fill="#333"/>
    <rect x="140" y="75" width="10" height="10" fill="#333"/>
    <rect x="140" y="95" width="10" height="10" fill="#333"/>
    <rect x="75" y="50" width="10" height="10" fill="#333"/>
    <rect x="115" y="50" width="10" height="10" fill="#333"/>
    <rect x="95" y="50" width="10" height="10" fill="#333"/>
    <path d="M0,0V200H200V0ZM28.29,10H171.71a29.87,29.87,0,0,0,3.84,7.38L122.93,70H77.07L24.45,17.38A29.88,29.88,0,0,0,28.29,10ZM120,80v40H80V80ZM10,171.71V28.29a29.93,29.93,0,0,0,7.38-3.84L70,77.07v45.86L17.38,175.55A29.93,29.93,0,0,0,10,171.71ZM171.71,190H28.29a29.9,29.9,0,0,0-3.84-7.38L77.07,130h45.86l52.62,52.62A29.88,29.88,0,0,0,171.71,190ZM190,171.71a29.88,29.88,0,0,0-7.38,3.84L130,122.93V77.07l52.62-52.62A29.9,29.9,0,0,0,190,28.29Z" fill="#333"/>
  </g>
</svg>
