<svg xmlns="http://www.w3.org/2000/svg" width="200" height="200" viewBox="0 0 200 200">
  <title>product-05</title>
  <g>
    <path d="M40,145a15,15,0,1,0,15,15A15,15,0,0,0,40,145Zm0,20a5,5,0,1,1,5-5A5,5,0,0,1,40,165Z" fill="#333"/>
    <path d="M0,0V200H200V0ZM10,190V17.07L78.79,85.86,54,110.61l7.07,7.07L82.32,96.46l10.61,53,24.75-24.75L182.93,190ZM91.53,91.53l37.68,7.54L99.07,129.21ZM190,182.93l-65.25-65.25L149.5,92.93l-53-10.61,21.21-21.21L110.61,54,85.86,78.79,17.07,10H190Z" fill="#333"/>
    <path d="M160,25a15,15,0,1,0,15,15A15,15,0,0,0,160,25Zm0,20a5,5,0,1,1,5-5A5,5,0,0,1,160,45Z" fill="#333"/>
  </g>
</svg>
