<svg xmlns="http://www.w3.org/2000/svg" width="200" height="200" viewBox="0 0 200 200">
  <title>product-07</title>
  <g>
    <circle cx="160" cy="160" r="15" fill="#333"/>
    <path d="M117.68,75.25,106.45,86.47a15,15,0,0,0-12.91,0L82.32,75.25l-7.07,7.07L86.47,93.54a15,15,0,0,0,0,12.91L75.25,117.68l7.07,7.07,11.22-11.22a15,15,0,0,0,12.91,0l11.22,11.22,7.07-7.07-11.22-11.22a15,15,0,0,0,0-12.91l11.22-11.22Z" fill="#333"/>
    <circle cx="40" cy="40" r="15" fill="#333"/>
    <path d="M170,0H0V170l30,30H200V30Zm20,34.14v68.79L97.07,10h68.79ZM10,165.86V97.07L102.93,190H34.14ZM117.07,190,10,82.93V10H82.93L190,117.07V190Z" fill="#333"/>
  </g>
</svg>
