{
  "1": {
    "ID": 1,
    "CLIENT_ID": 1,
    "DATE": "22-FEB-2017",
    "STATUS": "awaiting"
  },
  "2": {
    "ID": 2,
    "CLIENT_ID": 1,
    "DATE": "12-SEP-2016",
    "STATUS": "awaiting"
  },
  "3": {
    "ID": 3,
    "CLIENT_ID": 1,
    "DATE": "14-MAY-2016",
    "STATUS": "awaiting"
  },
  "4": {
    "ID": 4,
    "CLIENT_ID": 1,
    "DATE": "26-NOV-2016",
    "STATUS": "awaiting"
  },
  "5": {
    "ID": 5,
    "CLIENT_ID": 1,
    "DATE": "22-MAY-2016",
    "STATUS": "awaiting"
  },
  "6": {
    "ID": 6,
    "CLIENT_ID": 1,
    "DATE": "20-AUG-2016",
    "STATUS": "awaiting"
  },
  "7": {
    "ID": 7,
    "CLIENT_ID": 1,
    "DATE": "26-MAY-2016",
    "STATUS": "working on"
  },
  "8": {
    "ID": 8,
    "CLIENT_ID": 1,
    "DATE": "25-JUL-2016",
    "STATUS": "working on"
  },
  "9": {
    "ID": 9,
    "CLIENT_ID": 1,
    "DATE": "13-FEB-2017",
    "STATUS": "working on"
  },
  "10": {
    "ID": 10,
    "CLIENT_ID": 1,
    "DATE": "18-JAN-2016",
    "STATUS": "working on"
  },
  "11": {
    "ID": 11,
    "CLIENT_ID": 1,
    "DATE": "29-SEP-2016",
    "STATUS": "refused"
  },
  "12": {
    "ID": 12,
    "CLIENT_ID": 1,
    "DATE": "27-JUL-2016",
    "STATUS": "refused"
  },
  "13": {
    "ID": 13,
    "CLIENT_ID": 1,
    "DATE": "05-NOV-2016",
    "STATUS": "refused"
  },
  "14": {
    "ID": 14,
    "CLIENT_ID": 1,
    "DATE": "25-JUL-2016",
    "STATUS": "refused"
  },
  "15": {
    "ID": 15,
    "CLIENT_ID": 1,
    "DATE": "16-MAR-2016",
    "STATUS": "refused"
  },
  "16": {
    "ID": 16,
    "CLIENT_ID": 1,
    "DATE": "15-JUN-2016",
    "STATUS": "completed"
  },
  "17": {
    "ID": 17,
    "CLIENT_ID": 1,
    "DATE": "14-FEB-2016",
    "STATUS": "completed"
  },
  "18": {
    "ID": 18,
    "CLIENT_ID": 1,
    "DATE": "02-FEB-2017",
    "STATUS": "completed"
  },
  "19": {
    "ID": 19,
    "CLIENT_ID": 1,
    "DATE": "31-JAN-2017",
    "STATUS": "completed"
  },
  "20": {
    "ID": 20,
    "CLIENT_ID": 1,
    "DATE": "09-JUL-2016",
    "STATUS": "completed"
  },
  "21": {
    "ID": 21,
    "CLIENT_ID": 1,
    "DATE": "19-APR-2016",
    "STATUS": "completed"
  },
  "22": {
    "ID": 22,
    "CLIENT_ID": 1,
    "DATE": "18-MAY-2016",
    "STATUS": "completed"
  },
  "23": {
    "ID": 23,
    "CLIENT_ID": 1,
    "DATE": "28-JAN-2017",
    "STATUS": "completed"
  },
  "24": {
    "ID": 24,
    "CLIENT_ID": 1,
    "DATE": "01-JAN-2017",
    "STATUS": "completed"
  },
  "25": {
    "ID": 25,
    "CLIENT_ID": 1,
    "DATE": "13-MAY-2016",
    "STATUS": "completed"
  },
  "26": {
    "ID": 26,
    "CLIENT_ID": 1,
    "DATE": "01-AUG-2016",
    "STATUS": "completed"
  },
  "27": {
    "ID": 27,
    "CLIENT_ID": 1,
    "DATE": "17-SEP-2016",
    "STATUS": "completed"
  },
  "28": {
    "ID": 28,
    "CLIENT_ID": 1,
    "DATE": "05-DEC-2016",
    "STATUS": "completed"
  },
  "29": {
    "ID": 29,
    "CLIENT_ID": 1,
    "DATE": "21-AUG-2016",
    "STATUS": "completed"
  },
  "30": {
    "ID": 30,
    "CLIENT_ID": 1,
    "DATE": "17-FEB-2017",
    "STATUS": "completed"
  },
  "31": {
    "ID": 31,
    "CLIENT_ID": 1,
    "DATE": "03-JUL-2016",
    "STATUS": "completed"
  },
  "32": {
    "ID": 32,
    "CLIENT_ID": 1,
    "DATE": "12-SEP-2016",
    "STATUS": "completed"
  },
  "33": {
    "ID": 33,
    "CLIENT_ID": 1,
    "DATE": "01-JUL-2016",
    "STATUS": "completed"
  },
  "34": {
    "ID": 34,
    "CLIENT_ID": 1,
    "DATE": "04-JAN-2017",
    "STATUS": "completed"
  },
  "35": {
    "ID": 35,
    "CLIENT_ID": 1,
    "DATE": "24-JUL-2016",
    "STATUS": "completed"
  },
  "36": {
    "ID": 36,
    "CLIENT_ID": 1,
    "DATE": "23-MAR-2016",
    "STATUS": "completed"
  },
  "37": {
    "ID": 37,
    "CLIENT_ID": 1,
    "DATE": "18-AUG-2016",
    "STATUS": "completed"
  },
  "38": {
    "ID": 38,
    "CLIENT_ID": 1,
    "DATE": "28-JUL-2016",
    "STATUS": "completed"
  },
  "39": {
    "ID": 39,
    "CLIENT_ID": 2,
    "DATE": "01-OCT-2016",
    "STATUS": "awaiting"
  },
  "40": {
    "ID": 40,
    "CLIENT_ID": 2,
    "DATE": "04-DEC-2016",
    "STATUS": "awaiting"
  },
  "41": {
    "ID": 41,
    "CLIENT_ID": 2,
    "DATE": "21-APR-2016",
    "STATUS": "awaiting"
  },
  "42": {
    "ID": 42,
    "CLIENT_ID": 2,
    "DATE": "15-AUG-2016",
    "STATUS": "awaiting"
  },
  "43": {
    "ID": 43,
    "CLIENT_ID": 2,
    "DATE": "14-SEP-2016",
    "STATUS": "awaiting"
  },
  "44": {
    "ID": 44,
    "CLIENT_ID": 2,
    "DATE": "17-FEB-2017",
    "STATUS": "awaiting"
  },
  "45": {
    "ID": 45,
    "CLIENT_ID": 2,
    "DATE": "29-APR-2016",
    "STATUS": "awaiting"
  },
  "46": {
    "ID": 46,
    "CLIENT_ID": 2,
    "DATE": "27-FEB-2016",
    "STATUS": "working on"
  },
  "47": {
    "ID": 47,
    "CLIENT_ID": 2,
    "DATE": "18-AUG-2016",
    "STATUS": "working on"
  },
  "48": {
    "ID": 48,
    "CLIENT_ID": 2,
    "DATE": "15-FEB-2016",
    "STATUS": "working on"
  },
  "49": {
    "ID": 49,
    "CLIENT_ID": 2,
    "DATE": "12-JUN-2016",
    "STATUS": "working on"
  },
  "50": {
    "ID": 50,
    "CLIENT_ID": 2,
    "DATE": "31-MAY-2016",
    "STATUS": "working on"
  },
  "51": {
    "ID": 51,
    "CLIENT_ID": 2,
    "DATE": "14-JUL-2016",
    "STATUS": "refused"
  },
  "52": {
    "ID": 52,
    "CLIENT_ID": 2,
    "DATE": "13-MAR-2016",
    "STATUS": "refused"
  },
  "53": {
    "ID": 53,
    "CLIENT_ID": 2,
    "DATE": "06-SEP-2016",
    "STATUS": "completed"
  },
  "54": {
    "ID": 54,
    "CLIENT_ID": 2,
    "DATE": "01-MAR-2016",
    "STATUS": "completed"
  },
  "55": {
    "ID": 55,
    "CLIENT_ID": 2,
    "DATE": "13-JUN-2016",
    "STATUS": "completed"
  },
  "56": {
    "ID": 56,
    "CLIENT_ID": 2,
    "DATE": "16-AUG-2016",
    "STATUS": "completed"
  },
  "57": {
    "ID": 57,
    "CLIENT_ID": 2,
    "DATE": "06-MAY-2016",
    "STATUS": "completed"
  },
  "58": {
    "ID": 58,
    "CLIENT_ID": 2,
    "DATE": "01-OCT-2016",
    "STATUS": "completed"
  },
  "59": {
    "ID": 59,
    "CLIENT_ID": 2,
    "DATE": "21-APR-2016",
    "STATUS": "completed"
  },
  "60": {
    "ID": 60,
    "CLIENT_ID": 2,
    "DATE": "24-JAN-2016",
    "STATUS": "completed"
  },
  "61": {
    "ID": 61,
    "CLIENT_ID": 2,
    "DATE": "14-MAR-2016",
    "STATUS": "completed"
  },
  "62": {
    "ID": 62,
    "CLIENT_ID": 3,
    "DATE": "13-NOV-2016",
    "STATUS": "awaiting"
  },
  "63": {
    "ID": 63,
    "CLIENT_ID": 3,
    "DATE": "20-AUG-2016",
    "STATUS": "awaiting"
  },
  "64": {
    "ID": 64,
    "CLIENT_ID": 3,
    "DATE": "12-JAN-2017",
    "STATUS": "awaiting"
  },
  "65": {
    "ID": 65,
    "CLIENT_ID": 3,
    "DATE": "03-JAN-2016",
    "STATUS": "awaiting"
  },
  "66": {
    "ID": 66,
    "CLIENT_ID": 3,
    "DATE": "09-MAY-2016",
    "STATUS": "working on"
  },
  "67": {
    "ID": 67,
    "CLIENT_ID": 3,
    "DATE": "23-JAN-2017",
    "STATUS": "working on"
  },
  "68": {
    "ID": 68,
    "CLIENT_ID": 3,
    "DATE": "13-APR-2016",
    "STATUS": "working on"
  },
  "69": {
    "ID": 69,
    "CLIENT_ID": 3,
    "DATE": "01-FEB-2016",
    "STATUS": "working on"
  },
  "70": {
    "ID": 70,
    "CLIENT_ID": 3,
    "DATE": "08-JAN-2017",
    "STATUS": "working on"
  },
  "71": {
    "ID": 71,
    "CLIENT_ID": 3,
    "DATE": "01-AUG-2016",
    "STATUS": "completed"
  },
  "72": {
    "ID": 72,
    "CLIENT_ID": 3,
    "DATE": "09-NOV-2016",
    "STATUS": "completed"
  },
  "73": {
    "ID": 73,
    "CLIENT_ID": 3,
    "DATE": "09-JAN-2017",
    "STATUS": "completed"
  },
  "74": {
    "ID": 74,
    "CLIENT_ID": 4,
    "DATE": "07-MAR-2016",
    "STATUS": "awaiting"
  },
  "75": {
    "ID": 75,
    "CLIENT_ID": 4,
    "DATE": "08-JAN-2017",
    "STATUS": "awaiting"
  },
  "76": {
    "ID": 76,
    "CLIENT_ID": 4,
    "DATE": "22-APR-2016",
    "STATUS": "awaiting"
  },
  "77": {
    "ID": 77,
    "CLIENT_ID": 4,
    "DATE": "27-SEP-2016",
    "STATUS": "awaiting"
  },
  "78": {
    "ID": 78,
    "CLIENT_ID": 4,
    "DATE": "04-OCT-2016",
    "STATUS": "working on"
  },
  "79": {
    "ID": 79,
    "CLIENT_ID": 4,
    "DATE": "07-APR-2016",
    "STATUS": "working on"
  },
  "80": {
    "ID": 80,
    "CLIENT_ID": 4,
    "DATE": "15-APR-2016",
    "STATUS": "working on"
  },
  "81": {
    "ID": 81,
    "CLIENT_ID": 4,
    "DATE": "14-NOV-2016",
    "STATUS": "working on"
  },
  "82": {
    "ID": 82,
    "CLIENT_ID": 4,
    "DATE": "06-JAN-2017",
    "STATUS": "refused"
  },
  "83": {
    "ID": 83,
    "CLIENT_ID": 4,
    "DATE": "05-DEC-2016",
    "STATUS": "refused"
  },
  "84": {
    "ID": 84,
    "CLIENT_ID": 4,
    "DATE": "30-MAR-2016",
    "STATUS": "refused"
  },
  "85": {
    "ID": 85,
    "CLIENT_ID": 4,
    "DATE": "15-FEB-2016",
    "STATUS": "refused"
  },
  "86": {
    "ID": 86,
    "CLIENT_ID": 4,
    "DATE": "31-MAR-2016",
    "STATUS": "completed"
  },
  "87": {
    "ID": 87,
    "CLIENT_ID": 4,
    "DATE": "14-SEP-2016",
    "STATUS": "completed"
  },
  "88": {
    "ID": 88,
    "CLIENT_ID": 4,
    "DATE": "08-JAN-2016",
    "STATUS": "completed"
  },
  "89": {
    "ID": 89,
    "CLIENT_ID": 4,
    "DATE": "03-FEB-2017",
    "STATUS": "completed"
  },
  "90": {
    "ID": 90,
    "CLIENT_ID": 4,
    "DATE": "26-JAN-2016",
    "STATUS": "completed"
  },
  "91": {
    "ID": 91,
    "CLIENT_ID": 4,
    "DATE": "10-JUL-2016",
    "STATUS": "completed"
  },
  "92": {
    "ID": 92,
    "CLIENT_ID": 4,
    "DATE": "25-DEC-2016",
    "STATUS": "completed"
  },
  "93": {
    "ID": 93,
    "CLIENT_ID": 4,
    "DATE": "03-APR-2016",
    "STATUS": "completed"
  },
  "94": {
    "ID": 94,
    "CLIENT_ID": 4,
    "DATE": "29-AUG-2016",
    "STATUS": "completed"
  },
  "95": {
    "ID": 95,
    "CLIENT_ID": 4,
    "DATE": "06-APR-2016",
    "STATUS": "completed"
  },
  "96": {
    "ID": 96,
    "CLIENT_ID": 4,
    "DATE": "03-JUL-2016",
    "STATUS": "completed"
  },
  "97": {
    "ID": 97,
    "CLIENT_ID": 4,
    "DATE": "13-JAN-2017",
    "STATUS": "completed"
  },
  "98": {
    "ID": 98,
    "CLIENT_ID": 4,
    "DATE": "11-APR-2016",
    "STATUS": "completed"
  },
  "99": {
    "ID": 99,
    "CLIENT_ID": 4,
    "DATE": "30-JAN-2017",
    "STATUS": "completed"
  },
  "100": {
    "ID": 100,
    "CLIENT_ID": 5,
    "DATE": "06-APR-2016",
    "STATUS": "awaiting"
  },
  "101": {
    "ID": 101,
    "CLIENT_ID": 5,
    "DATE": "23-OCT-2016",
    "STATUS": "awaiting"
  },
  "102": {
    "ID": 102,
    "CLIENT_ID": 5,
    "DATE": "19-SEP-2016",
    "STATUS": "awaiting"
  },
  "103": {
    "ID": 103,
    "CLIENT_ID": 5,
    "DATE": "27-OCT-2016",
    "STATUS": "awaiting"
  },
  "104": {
    "ID": 104,
    "CLIENT_ID": 5,
    "DATE": "31-OCT-2016",
    "STATUS": "awaiting"
  },
  "105": {
    "ID": 105,
    "CLIENT_ID": 5,
    "DATE": "08-OCT-2016",
    "STATUS": "working on"
  },
  "106": {
    "ID": 106,
    "CLIENT_ID": 5,
    "DATE": "30-SEP-2016",
    "STATUS": "working on"
  },
  "107": {
    "ID": 107,
    "CLIENT_ID": 5,
    "DATE": "07-JAN-2017",
    "STATUS": "working on"
  },
  "108": {
    "ID": 108,
    "CLIENT_ID": 5,
    "DATE": "26-JUN-2016",
    "STATUS": "working on"
  },
  "109": {
    "ID": 109,
    "CLIENT_ID": 5,
    "DATE": "13-DEC-2016",
    "STATUS": "working on"
  },
  "110": {
    "ID": 110,
    "CLIENT_ID": 5,
    "DATE": "21-JUL-2016",
    "STATUS": "refused"
  },
  "111": {
    "ID": 111,
    "CLIENT_ID": 5,
    "DATE": "24-MAR-2016",
    "STATUS": "refused"
  },
  "112": {
    "ID": 112,
    "CLIENT_ID": 5,
    "DATE": "11-JUN-2016",
    "STATUS": "refused"
  },
  "113": {
    "ID": 113,
    "CLIENT_ID": 5,
    "DATE": "03-FEB-2017",
    "STATUS": "completed"
  },
  "114": {
    "ID": 114,
    "CLIENT_ID": 5,
    "DATE": "16-JAN-2017",
    "STATUS": "completed"
  },
  "115": {
    "ID": 115,
    "CLIENT_ID": 5,
    "DATE": "28-MAY-2016",
    "STATUS": "completed"
  },
  "116": {
    "ID": 116,
    "CLIENT_ID": 5,
    "DATE": "02-SEP-2016",
    "STATUS": "completed"
  },
  "117": {
    "ID": 117,
    "CLIENT_ID": 5,
    "DATE": "13-OCT-2016",
    "STATUS": "completed"
  },
  "118": {
    "ID": 118,
    "CLIENT_ID": 5,
    "DATE": "23-JUN-2016",
    "STATUS": "completed"
  },
  "119": {
    "ID": 119,
    "CLIENT_ID": 6,
    "DATE": "03-JAN-2016",
    "STATUS": "awaiting"
  },
  "120": {
    "ID": 120,
    "CLIENT_ID": 6,
    "DATE": "10-JAN-2017",
    "STATUS": "awaiting"
  },
  "121": {
    "ID": 121,
    "CLIENT_ID": 6,
    "DATE": "15-FEB-2017",
    "STATUS": "awaiting"
  },
  "122": {
    "ID": 122,
    "CLIENT_ID": 6,
    "DATE": "16-MAY-2016",
    "STATUS": "awaiting"
  },
  "123": {
    "ID": 123,
    "CLIENT_ID": 6,
    "DATE": "09-JAN-2017",
    "STATUS": "awaiting"
  },
  "124": {
    "ID": 124,
    "CLIENT_ID": 6,
    "DATE": "21-JUL-2016",
    "STATUS": "working on"
  },
  "125": {
    "ID": 125,
    "CLIENT_ID": 6,
    "DATE": "08-SEP-2016",
    "STATUS": "working on"
  },
  "126": {
    "ID": 126,
    "CLIENT_ID": 6,
    "DATE": "04-JAN-2017",
    "STATUS": "working on"
  },
  "127": {
    "ID": 127,
    "CLIENT_ID": 6,
    "DATE": "26-NOV-2016",
    "STATUS": "working on"
  },
  "128": {
    "ID": 128,
    "CLIENT_ID": 6,
    "DATE": "01-APR-2016",
    "STATUS": "working on"
  },
  "129": {
    "ID": 129,
    "CLIENT_ID": 6,
    "DATE": "01-MAR-2016",
    "STATUS": "refused"
  },
  "130": {
    "ID": 130,
    "CLIENT_ID": 6,
    "DATE": "25-FEB-2016",
    "STATUS": "refused"
  },
  "131": {
    "ID": 131,
    "CLIENT_ID": 6,
    "DATE": "07-FEB-2017",
    "STATUS": "refused"
  },
  "132": {
    "ID": 132,
    "CLIENT_ID": 6,
    "DATE": "02-MAR-2016",
    "STATUS": "refused"
  },
  "133": {
    "ID": 133,
    "CLIENT_ID": 6,
    "DATE": "27-DEC-2016",
    "STATUS": "refused"
  },
  "134": {
    "ID": 134,
    "CLIENT_ID": 6,
    "DATE": "10-JUL-2016",
    "STATUS": "completed"
  },
  "135": {
    "ID": 135,
    "CLIENT_ID": 6,
    "DATE": "13-SEP-2016",
    "STATUS": "completed"
  },
  "136": {
    "ID": 136,
    "CLIENT_ID": 6,
    "DATE": "21-AUG-2016",
    "STATUS": "completed"
  },
  "137": {
    "ID": 137,
    "CLIENT_ID": 6,
    "DATE": "09-NOV-2016",
    "STATUS": "completed"
  },
  "138": {
    "ID": 138,
    "CLIENT_ID": 6,
    "DATE": "06-FEB-2017",
    "STATUS": "completed"
  },
  "139": {
    "ID": 139,
    "CLIENT_ID": 6,
    "DATE": "30-JAN-2017",
    "STATUS": "completed"
  },
  "140": {
    "ID": 140,
    "CLIENT_ID": 6,
    "DATE": "22-OCT-2016",
    "STATUS": "completed"
  },
  "141": {
    "ID": 141,
    "CLIENT_ID": 6,
    "DATE": "14-SEP-2016",
    "STATUS": "completed"
  },
  "142": {
    "ID": 142,
    "CLIENT_ID": 8,
    "DATE": "14-JAN-2016",
    "STATUS": "awaiting"
  },
  "143": {
    "ID": 143,
    "CLIENT_ID": 8,
    "DATE": "24-NOV-2016",
    "STATUS": "awaiting"
  },
  "144": {
    "ID": 144,
    "CLIENT_ID": 8,
    "DATE": "30-OCT-2016",
    "STATUS": "awaiting"
  },
  "145": {
    "ID": 145,
    "CLIENT_ID": 8,
    "DATE": "03-MAR-2016",
    "STATUS": "awaiting"
  },
  "146": {
    "ID": 146,
    "CLIENT_ID": 8,
    "DATE": "07-JUL-2016",
    "STATUS": "awaiting"
  },
  "147": {
    "ID": 147,
    "CLIENT_ID": 8,
    "DATE": "03-SEP-2016",
    "STATUS": "awaiting"
  },
  "148": {
    "ID": 148,
    "CLIENT_ID": 8,
    "DATE": "04-MAY-2016",
    "STATUS": "working on"
  },
  "149": {
    "ID": 149,
    "CLIENT_ID": 8,
    "DATE": "11-JUN-2016",
    "STATUS": "working on"
  },
  "150": {
    "ID": 150,
    "CLIENT_ID": 8,
    "DATE": "23-MAY-2016",
    "STATUS": "working on"
  },
  "151": {
    "ID": 151,
    "CLIENT_ID": 8,
    "DATE": "01-JAN-2016",
    "STATUS": "working on"
  },
  "152": {
    "ID": 152,
    "CLIENT_ID": 8,
    "DATE": "29-MAR-2016",
    "STATUS": "working on"
  },
  "153": {
    "ID": 153,
    "CLIENT_ID": 8,
    "DATE": "22-SEP-2016",
    "STATUS": "working on"
  },
  "154": {
    "ID": 154,
    "CLIENT_ID": 8,
    "DATE": "27-FEB-2017",
    "STATUS": "refused"
  },
  "155": {
    "ID": 155,
    "CLIENT_ID": 8,
    "DATE": "11-NOV-2016",
    "STATUS": "refused"
  },
  "156": {
    "ID": 156,
    "CLIENT_ID": 8,
    "DATE": "11-JUL-2016",
    "STATUS": "refused"
  },
  "157": {
    "ID": 157,
    "CLIENT_ID": 8,
    "DATE": "05-JAN-2017",
    "STATUS": "completed"
  },
  "158": {
    "ID": 158,
    "CLIENT_ID": 8,
    "DATE": "28-FEB-2016",
    "STATUS": "completed"
  },
  "159": {
    "ID": 159,
    "CLIENT_ID": 8,
    "DATE": "17-FEB-2017",
    "STATUS": "completed"
  },
  "160": {
    "ID": 160,
    "CLIENT_ID": 9,
    "DATE": "15-SEP-2016",
    "STATUS": "awaiting"
  },
  "161": {
    "ID": 161,
    "CLIENT_ID": 9,
    "DATE": "21-MAY-2016",
    "STATUS": "awaiting"
  },
  "162": {
    "ID": 162,
    "CLIENT_ID": 9,
    "DATE": "03-APR-2016",
    "STATUS": "awaiting"
  },
  "163": {
    "ID": 163,
    "CLIENT_ID": 9,
    "DATE": "18-AUG-2016",
    "STATUS": "awaiting"
  },
  "164": {
    "ID": 164,
    "CLIENT_ID": 9,
    "DATE": "03-JAN-2017",
    "STATUS": "working on"
  },
  "165": {
    "ID": 165,
    "CLIENT_ID": 9,
    "DATE": "24-NOV-2016",
    "STATUS": "working on"
  },
  "166": {
    "ID": 166,
    "CLIENT_ID": 9,
    "DATE": "05-DEC-2016",
    "STATUS": "working on"
  },
  "167": {
    "ID": 167,
    "CLIENT_ID": 9,
    "DATE": "10-DEC-2016",
    "STATUS": "working on"
  },
  "168": {
    "ID": 168,
    "CLIENT_ID": 9,
    "DATE": "26-NOV-2016",
    "STATUS": "working on"
  },
  "169": {
    "ID": 169,
    "CLIENT_ID": 9,
    "DATE": "23-MAR-2016",
    "STATUS": "working on"
  },
  "170": {
    "ID": 170,
    "CLIENT_ID": 9,
    "DATE": "22-FEB-2017",
    "STATUS": "working on"
  },
  "171": {
    "ID": 171,
    "CLIENT_ID": 9,
    "DATE": "07-OCT-2016",
    "STATUS": "completed"
  },
  "172": {
    "ID": 172,
    "CLIENT_ID": 9,
    "DATE": "25-JAN-2017",
    "STATUS": "completed"
  },
  "173": {
    "ID": 173,
    "CLIENT_ID": 9,
    "DATE": "19-JUN-2016",
    "STATUS": "awaiting"
  },
  "174": {
    "ID": 174,
    "CLIENT_ID": 9,
    "DATE": "22-APR-2016",
    "STATUS": "awaiting"
  },
  "175": {
    "ID": 175,
    "CLIENT_ID": 9,
    "DATE": "07-JAN-2016",
    "STATUS": "awaiting"
  },
  "176": {
    "ID": 176,
    "CLIENT_ID": 9,
    "DATE": "28-SEP-2016",
    "STATUS": "awaiting"
  },
  "177": {
    "ID": 177,
    "CLIENT_ID": 9,
    "DATE": "22-MAY-2016",
    "STATUS": "awaiting"
  },
  "178": {
    "ID": 178,
    "CLIENT_ID": 9,
    "DATE": "23-FEB-2017",
    "STATUS": "awaiting"
  },
  "179": {
    "ID": 179,
    "CLIENT_ID": 9,
    "DATE": "05-NOV-2016",
    "STATUS": "working on"
  },
  "180": {
    "ID": 180,
    "CLIENT_ID": 9,
    "DATE": "17-JUL-2016",
    "STATUS": "working on"
  },
  "181": {
    "ID": 181,
    "CLIENT_ID": 9,
    "DATE": "18-SEP-2016",
    "STATUS": "working on"
  },
  "182": {
    "ID": 182,
    "CLIENT_ID": 9,
    "DATE": "21-APR-2016",
    "STATUS": "working on"
  },
  "183": {
    "ID": 183,
    "CLIENT_ID": 9,
    "DATE": "09-SEP-2016",
    "STATUS": "working on"
  },
  "184": {
    "ID": 184,
    "CLIENT_ID": 9,
    "DATE": "10-APR-2016",
    "STATUS": "working on"
  },
  "185": {
    "ID": 185,
    "CLIENT_ID": 9,
    "DATE": "25-APR-2016",
    "STATUS": "refused"
  },
  "186": {
    "ID": 186,
    "CLIENT_ID": 9,
    "DATE": "23-FEB-2016",
    "STATUS": "refused"
  },
  "187": {
    "ID": 187,
    "CLIENT_ID": 9,
    "DATE": "02-MAR-2016",
    "STATUS": "refused"
  },
  "188": {
    "ID": 188,
    "CLIENT_ID": 9,
    "DATE": "12-JAN-2017",
    "STATUS": "refused"
  },
  "189": {
    "ID": 189,
    "CLIENT_ID": 9,
    "DATE": "26-OCT-2016",
    "STATUS": "completed"
  },
  "190": {
    "ID": 190,
    "CLIENT_ID": 10,
    "DATE": "12-JAN-2016",
    "STATUS": "awaiting"
  },
  "191": {
    "ID": 191,
    "CLIENT_ID": 10,
    "DATE": "02-JUL-2016",
    "STATUS": "awaiting"
  },
  "192": {
    "ID": 192,
    "CLIENT_ID": 10,
    "DATE": "03-JUN-2016",
    "STATUS": "awaiting"
  },
  "193": {
    "ID": 193,
    "CLIENT_ID": 10,
    "DATE": "26-JAN-2016",
    "STATUS": "awaiting"
  },
  "194": {
    "ID": 194,
    "CLIENT_ID": 10,
    "DATE": "20-APR-2016",
    "STATUS": "awaiting"
  },
  "195": {
    "ID": 195,
    "CLIENT_ID": 10,
    "DATE": "25-NOV-2016",
    "STATUS": "awaiting"
  },
  "196": {
    "ID": 196,
    "CLIENT_ID": 10,
    "DATE": "14-SEP-2016",
    "STATUS": "awaiting"
  },
  "197": {
    "ID": 197,
    "CLIENT_ID": 10,
    "DATE": "02-SEP-2016",
    "STATUS": "working on"
  },
  "198": {
    "ID": 198,
    "CLIENT_ID": 10,
    "DATE": "13-JUL-2016",
    "STATUS": "working on"
  },
  "199": {
    "ID": 199,
    "CLIENT_ID": 10,
    "DATE": "15-MAY-2016",
    "STATUS": "working on"
  },
  "200": {
    "ID": 200,
    "CLIENT_ID": 10,
    "DATE": "17-APR-2016",
    "STATUS": "working on"
  },
  "201": {
    "ID": 201,
    "CLIENT_ID": 10,
    "DATE": "11-NOV-2016",
    "STATUS": "refused"
  },
  "202": {
    "ID": 202,
    "CLIENT_ID": 10,
    "DATE": "13-SEP-2016",
    "STATUS": "refused"
  },
  "203": {
    "ID": 203,
    "CLIENT_ID": 10,
    "DATE": "09-JAN-2017",
    "STATUS": "refused"
  },
  "204": {
    "ID": 204,
    "CLIENT_ID": 10,
    "DATE": "05-JAN-2016",
    "STATUS": "refused"
  },
  "205": {
    "ID": 205,
    "CLIENT_ID": 10,
    "DATE": "13-JUN-2016",
    "STATUS": "refused"
  },
  "206": {
    "ID": 206,
    "CLIENT_ID": 10,
    "DATE": "25-OCT-2016",
    "STATUS": "refused"
  },
  "207": {
    "ID": 207,
    "CLIENT_ID": 10,
    "DATE": "01-DEC-2016",
    "STATUS": "completed"
  },
  "208": {
    "ID": 208,
    "CLIENT_ID": 10,
    "DATE": "11-JAN-2016",
    "STATUS": "completed"
  },
  "209": {
    "ID": 209,
    "CLIENT_ID": 10,
    "DATE": "01-OCT-2016",
    "STATUS": "completed"
  },
  "210": {
    "ID": 210,
    "CLIENT_ID": 10,
    "DATE": "09-MAR-2016",
    "STATUS": "completed"
  },
  "211": {
    "ID": 211,
    "CLIENT_ID": 10,
    "DATE": "09-JAN-2017",
    "STATUS": "completed"
  },
  "212": {
    "ID": 212,
    "CLIENT_ID": 10,
    "DATE": "12-OCT-2016",
    "STATUS": "completed"
  },
  "213": {
    "ID": 213,
    "CLIENT_ID": 10,
    "DATE": "11-JUN-2016",
    "STATUS": "completed"
  },
  "214": {
    "ID": 214,
    "CLIENT_ID": 10,
    "DATE": "22-MAR-2016",
    "STATUS": "completed"
  },
  "215": {
    "ID": 215,
    "CLIENT_ID": 10,
    "DATE": "28-OCT-2016",
    "STATUS": "completed"
  },
  "216": {
    "ID": 216,
    "CLIENT_ID": 10,
    "DATE": "07-JUN-2016",
    "STATUS": "completed"
  },
  "217": {
    "ID": 217,
    "CLIENT_ID": 10,
    "DATE": "31-OCT-2016",
    "STATUS": "completed"
  },
  "218": {
    "ID": 218,
    "CLIENT_ID": 10,
    "DATE": "13-DEC-2016",
    "STATUS": "completed"
  },
  "219": {
    "ID": 219,
    "CLIENT_ID": 11,
    "DATE": "03-DEC-2016",
    "STATUS": "awaiting"
  },
  "220": {
    "ID": 220,
    "CLIENT_ID": 11,
    "DATE": "07-FEB-2016",
    "STATUS": "awaiting"
  },
  "221": {
    "ID": 221,
    "CLIENT_ID": 11,
    "DATE": "06-MAR-2016",
    "STATUS": "awaiting"
  },
  "222": {
    "ID": 222,
    "CLIENT_ID": 11,
    "DATE": "17-MAY-2016",
    "STATUS": "awaiting"
  },
  "223": {
    "ID": 223,
    "CLIENT_ID": 11,
    "DATE": "30-JUL-2016",
    "STATUS": "awaiting"
  },
  "224": {
    "ID": 224,
    "CLIENT_ID": 11,
    "DATE": "21-OCT-2016",
    "STATUS": "awaiting"
  },
  "225": {
    "ID": 225,
    "CLIENT_ID": 11,
    "DATE": "20-FEB-2017",
    "STATUS": "working on"
  },
  "226": {
    "ID": 226,
    "CLIENT_ID": 11,
    "DATE": "10-JAN-2017",
    "STATUS": "working on"
  },
  "227": {
    "ID": 227,
    "CLIENT_ID": 11,
    "DATE": "19-JAN-2017",
    "STATUS": "working on"
  },
  "228": {
    "ID": 228,
    "CLIENT_ID": 11,
    "DATE": "07-DEC-2016",
    "STATUS": "working on"
  },
  "229": {
    "ID": 229,
    "CLIENT_ID": 11,
    "DATE": "02-MAR-2016",
    "STATUS": "working on"
  },
  "230": {
    "ID": 230,
    "CLIENT_ID": 11,
    "DATE": "25-FEB-2017",
    "STATUS": "working on"
  },
  "231": {
    "ID": 231,
    "CLIENT_ID": 11,
    "DATE": "16-JUL-2016",
    "STATUS": "working on"
  },
  "232": {
    "ID": 232,
    "CLIENT_ID": 11,
    "DATE": "27-OCT-2016",
    "STATUS": "refused"
  },
  "233": {
    "ID": 233,
    "CLIENT_ID": 11,
    "DATE": "24-NOV-2016",
    "STATUS": "refused"
  },
  "234": {
    "ID": 234,
    "CLIENT_ID": 11,
    "DATE": "26-MAR-2016",
    "STATUS": "refused"
  },
  "235": {
    "ID": 235,
    "CLIENT_ID": 11,
    "DATE": "28-MAY-2016",
    "STATUS": "completed"
  },
  "236": {
    "ID": 236,
    "CLIENT_ID": 11,
    "DATE": "12-MAY-2016",
    "STATUS": "completed"
  },
  "237": {
    "ID": 237,
    "CLIENT_ID": 11,
    "DATE": "03-FEB-2017",
    "STATUS": "completed"
  },
  "238": {
    "ID": 238,
    "CLIENT_ID": 11,
    "DATE": "18-JAN-2016",
    "STATUS": "completed"
  },
  "239": {
    "ID": 239,
    "CLIENT_ID": 11,
    "DATE": "12-FEB-2016",
    "STATUS": "completed"
  },
  "240": {
    "ID": 240,
    "CLIENT_ID": 11,
    "DATE": "01-MAR-2016",
    "STATUS": "completed"
  },
  "241": {
    "ID": 241,
    "CLIENT_ID": 11,
    "DATE": "11-DEC-2016",
    "STATUS": "completed"
  },
  "242": {
    "ID": 242,
    "CLIENT_ID": 11,
    "DATE": "07-DEC-2016",
    "STATUS": "completed"
  },
  "243": {
    "ID": 243,
    "CLIENT_ID": 11,
    "DATE": "13-DEC-2016",
    "STATUS": "completed"
  },
  "244": {
    "ID": 244,
    "CLIENT_ID": 11,
    "DATE": "15-JAN-2017",
    "STATUS": "completed"
  },
  "245": {
    "ID": 245,
    "CLIENT_ID": 11,
    "DATE": "18-SEP-2016",
    "STATUS": "completed"
  },
  "246": {
    "ID": 246,
    "CLIENT_ID": 11,
    "DATE": "15-JAN-2017",
    "STATUS": "completed"
  },
  "247": {
    "ID": 247,
    "CLIENT_ID": 11,
    "DATE": "16-MAR-2016",
    "STATUS": "completed"
  },
  "248": {
    "ID": 248,
    "CLIENT_ID": 11,
    "DATE": "30-MAY-2016",
    "STATUS": "completed"
  },
  "249": {
    "ID": 249,
    "CLIENT_ID": 11,
    "DATE": "10-SEP-2016",
    "STATUS": "completed"
  },
  "250": {
    "ID": 250,
    "CLIENT_ID": 11,
    "DATE": "24-NOV-2016",
    "STATUS": "completed"
  },
  "251": {
    "ID": 251,
    "CLIENT_ID": 12,
    "DATE": "31-JUL-2016",
    "STATUS": "awaiting"
  },
  "252": {
    "ID": 252,
    "CLIENT_ID": 12,
    "DATE": "26-JUN-2016",
    "STATUS": "awaiting"
  },
  "253": {
    "ID": 253,
    "CLIENT_ID": 12,
    "DATE": "18-FEB-2016",
    "STATUS": "awaiting"
  },
  "254": {
    "ID": 254,
    "CLIENT_ID": 12,
    "DATE": "10-DEC-2016",
    "STATUS": "awaiting"
  },
  "255": {
    "ID": 255,
    "CLIENT_ID": 12,
    "DATE": "04-JUN-2016",
    "STATUS": "awaiting"
  },
  "256": {
    "ID": 256,
    "CLIENT_ID": 12,
    "DATE": "14-OCT-2016",
    "STATUS": "awaiting"
  },
  "257": {
    "ID": 257,
    "CLIENT_ID": 12,
    "DATE": "16-AUG-2016",
    "STATUS": "working on"
  },
  "258": {
    "ID": 258,
    "CLIENT_ID": 12,
    "DATE": "03-JAN-2016",
    "STATUS": "working on"
  },
  "259": {
    "ID": 259,
    "CLIENT_ID": 12,
    "DATE": "17-JAN-2016",
    "STATUS": "working on"
  },
  "260": {
    "ID": 260,
    "CLIENT_ID": 12,
    "DATE": "20-JAN-2016",
    "STATUS": "working on"
  },
  "261": {
    "ID": 261,
    "CLIENT_ID": 12,
    "DATE": "15-NOV-2016",
    "STATUS": "working on"
  },
  "262": {
    "ID": 262,
    "CLIENT_ID": 12,
    "DATE": "26-APR-2016",
    "STATUS": "working on"
  },
  "263": {
    "ID": 263,
    "CLIENT_ID": 12,
    "DATE": "25-MAY-2016",
    "STATUS": "refused"
  },
  "264": {
    "ID": 264,
    "CLIENT_ID": 12,
    "DATE": "03-JAN-2017",
    "STATUS": "refused"
  },
  "265": {
    "ID": 265,
    "CLIENT_ID": 12,
    "DATE": "23-MAR-2016",
    "STATUS": "refused"
  },
  "266": {
    "ID": 266,
    "CLIENT_ID": 12,
    "DATE": "16-FEB-2016",
    "STATUS": "refused"
  },
  "267": {
    "ID": 267,
    "CLIENT_ID": 13,
    "DATE": "02-FEB-2016",
    "STATUS": "awaiting"
  },
  "268": {
    "ID": 268,
    "CLIENT_ID": 13,
    "DATE": "25-OCT-2016",
    "STATUS": "awaiting"
  },
  "269": {
    "ID": 269,
    "CLIENT_ID": 13,
    "DATE": "19-JAN-2017",
    "STATUS": "awaiting"
  },
  "270": {
    "ID": 270,
    "CLIENT_ID": 13,
    "DATE": "13-JUN-2016",
    "STATUS": "awaiting"
  },
  "271": {
    "ID": 271,
    "CLIENT_ID": 13,
    "DATE": "07-JAN-2016",
    "STATUS": "awaiting"
  },
  "272": {
    "ID": 272,
    "CLIENT_ID": 13,
    "DATE": "30-MAY-2016",
    "STATUS": "working on"
  },
  "273": {
    "ID": 273,
    "CLIENT_ID": 13,
    "DATE": "23-FEB-2017",
    "STATUS": "working on"
  },
  "274": {
    "ID": 274,
    "CLIENT_ID": 13,
    "DATE": "07-FEB-2016",
    "STATUS": "working on"
  },
  "275": {
    "ID": 275,
    "CLIENT_ID": 13,
    "DATE": "22-JAN-2017",
    "STATUS": "working on"
  },
  "276": {
    "ID": 276,
    "CLIENT_ID": 13,
    "DATE": "02-MAR-2016",
    "STATUS": "working on"
  },
  "277": {
    "ID": 277,
    "CLIENT_ID": 13,
    "DATE": "02-MAY-2016",
    "STATUS": "working on"
  },
  "278": {
    "ID": 278,
    "CLIENT_ID": 13,
    "DATE": "17-FEB-2017",
    "STATUS": "refused"
  },
  "279": {
    "ID": 279,
    "CLIENT_ID": 13,
    "DATE": "18-AUG-2016",
    "STATUS": "completed"
  },
  "280": {
    "ID": 280,
    "CLIENT_ID": 13,
    "DATE": "11-DEC-2016",
    "STATUS": "completed"
  },
  "281": {
    "ID": 281,
    "CLIENT_ID": 13,
    "DATE": "05-MAY-2016",
    "STATUS": "completed"
  },
  "282": {
    "ID": 282,
    "CLIENT_ID": 14,
    "DATE": "27-FEB-2016",
    "STATUS": "awaiting"
  },
  "283": {
    "ID": 283,
    "CLIENT_ID": 14,
    "DATE": "28-OCT-2016",
    "STATUS": "awaiting"
  },
  "284": {
    "ID": 284,
    "CLIENT_ID": 14,
    "DATE": "17-JUL-2016",
    "STATUS": "awaiting"
  },
  "285": {
    "ID": 285,
    "CLIENT_ID": 14,
    "DATE": "31-MAY-2016",
    "STATUS": "awaiting"
  },
  "286": {
    "ID": 286,
    "CLIENT_ID": 14,
    "DATE": "20-NOV-2016",
    "STATUS": "awaiting"
  },
  "287": {
    "ID": 287,
    "CLIENT_ID": 14,
    "DATE": "30-NOV-2016",
    "STATUS": "awaiting"
  },
  "288": {
    "ID": 288,
    "CLIENT_ID": 14,
    "DATE": "08-AUG-2016",
    "STATUS": "awaiting"
  },
  "289": {
    "ID": 289,
    "CLIENT_ID": 14,
    "DATE": "18-DEC-2016",
    "STATUS": "working on"
  },
  "290": {
    "ID": 290,
    "CLIENT_ID": 14,
    "DATE": "15-JUL-2016",
    "STATUS": "working on"
  },
  "291": {
    "ID": 291,
    "CLIENT_ID": 14,
    "DATE": "11-OCT-2016",
    "STATUS": "working on"
  },
  "292": {
    "ID": 292,
    "CLIENT_ID": 14,
    "DATE": "22-SEP-2016",
    "STATUS": "working on"
  },
  "293": {
    "ID": 293,
    "CLIENT_ID": 14,
    "DATE": "06-OCT-2016",
    "STATUS": "working on"
  },
  "294": {
    "ID": 294,
    "CLIENT_ID": 14,
    "DATE": "27-OCT-2016",
    "STATUS": "working on"
  },
  "295": {
    "ID": 295,
    "CLIENT_ID": 14,
    "DATE": "07-JUN-2016",
    "STATUS": "refused"
  },
  "296": {
    "ID": 296,
    "CLIENT_ID": 14,
    "DATE": "09-DEC-2016",
    "STATUS": "refused"
  },
  "297": {
    "ID": 297,
    "CLIENT_ID": 14,
    "DATE": "12-JUN-2016",
    "STATUS": "refused"
  },
  "298": {
    "ID": 298,
    "CLIENT_ID": 14,
    "DATE": "14-MAR-2016",
    "STATUS": "completed"
  },
  "299": {
    "ID": 299,
    "CLIENT_ID": 15,
    "DATE": "29-MAY-2016",
    "STATUS": "awaiting"
  },
  "300": {
    "ID": 300,
    "CLIENT_ID": 15,
    "DATE": "15-FEB-2017",
    "STATUS": "awaiting"
  },
  "301": {
    "ID": 301,
    "CLIENT_ID": 15,
    "DATE": "31-JAN-2017",
    "STATUS": "awaiting"
  },
  "302": {
    "ID": 302,
    "CLIENT_ID": 15,
    "DATE": "16-APR-2016",
    "STATUS": "awaiting"
  },
  "303": {
    "ID": 303,
    "CLIENT_ID": 15,
    "DATE": "30-JUL-2016",
    "STATUS": "awaiting"
  },
  "304": {
    "ID": 304,
    "CLIENT_ID": 15,
    "DATE": "30-JUN-2016",
    "STATUS": "working on"
  },
  "305": {
    "ID": 305,
    "CLIENT_ID": 15,
    "DATE": "01-JUL-2016",
    "STATUS": "working on"
  },
  "306": {
    "ID": 306,
    "CLIENT_ID": 15,
    "DATE": "03-MAR-2016",
    "STATUS": "working on"
  },
  "307": {
    "ID": 307,
    "CLIENT_ID": 15,
    "DATE": "16-JUL-2016",
    "STATUS": "working on"
  },
  "308": {
    "ID": 308,
    "CLIENT_ID": 15,
    "DATE": "06-APR-2016",
    "STATUS": "working on"
  },
  "309": {
    "ID": 309,
    "CLIENT_ID": 15,
    "DATE": "09-MAR-2016",
    "STATUS": "refused"
  },
  "310": {
    "ID": 310,
    "CLIENT_ID": 15,
    "DATE": "19-OCT-2016",
    "STATUS": "completed"
  },
  "311": {
    "ID": 311,
    "CLIENT_ID": 16,
    "DATE": "10-JUL-2016",
    "STATUS": "awaiting"
  },
  "312": {
    "ID": 312,
    "CLIENT_ID": 16,
    "DATE": "11-FEB-2017",
    "STATUS": "awaiting"
  },
  "313": {
    "ID": 313,
    "CLIENT_ID": 16,
    "DATE": "03-OCT-2016",
    "STATUS": "awaiting"
  },
  "314": {
    "ID": 314,
    "CLIENT_ID": 16,
    "DATE": "21-APR-2016",
    "STATUS": "awaiting"
  },
  "315": {
    "ID": 315,
    "CLIENT_ID": 16,
    "DATE": "12-SEP-2016",
    "STATUS": "awaiting"
  },
  "316": {
    "ID": 316,
    "CLIENT_ID": 16,
    "DATE": "08-AUG-2016",
    "STATUS": "working on"
  },
  "317": {
    "ID": 317,
    "CLIENT_ID": 16,
    "DATE": "14-JAN-2016",
    "STATUS": "working on"
  },
  "318": {
    "ID": 318,
    "CLIENT_ID": 16,
    "DATE": "17-DEC-2016",
    "STATUS": "working on"
  },
  "319": {
    "ID": 319,
    "CLIENT_ID": 16,
    "DATE": "17-AUG-2016",
    "STATUS": "working on"
  },
  "320": {
    "ID": 320,
    "CLIENT_ID": 16,
    "DATE": "23-JAN-2017",
    "STATUS": "completed"
  },
  "321": {
    "ID": 321,
    "CLIENT_ID": 16,
    "DATE": "05-OCT-2016",
    "STATUS": "completed"
  },
  "322": {
    "ID": 322,
    "CLIENT_ID": 16,
    "DATE": "22-JAN-2017",
    "STATUS": "completed"
  },
  "323": {
    "ID": 323,
    "CLIENT_ID": 16,
    "DATE": "21-JAN-2016",
    "STATUS": "completed"
  },
  "324": {
    "ID": 324,
    "CLIENT_ID": 16,
    "DATE": "17-DEC-2016",
    "STATUS": "completed"
  },
  "325": {
    "ID": 325,
    "CLIENT_ID": 16,
    "DATE": "14-DEC-2016",
    "STATUS": "completed"
  },
  "326": {
    "ID": 326,
    "CLIENT_ID": 16,
    "DATE": "24-OCT-2016",
    "STATUS": "completed"
  },
  "327": {
    "ID": 327,
    "CLIENT_ID": 16,
    "DATE": "27-JAN-2017",
    "STATUS": "completed"
  },
  "328": {
    "ID": 328,
    "CLIENT_ID": 17,
    "DATE": "08-JUL-2016",
    "STATUS": "awaiting"
  },
  "329": {
    "ID": 329,
    "CLIENT_ID": 17,
    "DATE": "15-JUL-2016",
    "STATUS": "awaiting"
  },
  "330": {
    "ID": 330,
    "CLIENT_ID": 17,
    "DATE": "26-DEC-2016",
    "STATUS": "awaiting"
  },
  "331": {
    "ID": 331,
    "CLIENT_ID": 17,
    "DATE": "03-MAY-2016",
    "STATUS": "awaiting"
  },
  "332": {
    "ID": 332,
    "CLIENT_ID": 17,
    "DATE": "19-JAN-2017",
    "STATUS": "working on"
  },
  "333": {
    "ID": 333,
    "CLIENT_ID": 17,
    "DATE": "05-NOV-2016",
    "STATUS": "working on"
  },
  "334": {
    "ID": 334,
    "CLIENT_ID": 17,
    "DATE": "13-DEC-2016",
    "STATUS": "working on"
  },
  "335": {
    "ID": 335,
    "CLIENT_ID": 17,
    "DATE": "26-MAY-2016",
    "STATUS": "working on"
  },
  "336": {
    "ID": 336,
    "CLIENT_ID": 17,
    "DATE": "30-JAN-2017",
    "STATUS": "working on"
  },
  "337": {
    "ID": 337,
    "CLIENT_ID": 17,
    "DATE": "05-JUL-2016",
    "STATUS": "working on"
  },
  "338": {
    "ID": 338,
    "CLIENT_ID": 17,
    "DATE": "06-SEP-2016",
    "STATUS": "refused"
  },
  "339": {
    "ID": 339,
    "CLIENT_ID": 17,
    "DATE": "18-SEP-2016",
    "STATUS": "completed"
  },
  "340": {
    "ID": 340,
    "CLIENT_ID": 17,
    "DATE": "25-JUL-2016",
    "STATUS": "completed"
  },
  "341": {
    "ID": 341,
    "CLIENT_ID": 17,
    "DATE": "28-JAN-2017",
    "STATUS": "completed"
  },
  "342": {
    "ID": 342,
    "CLIENT_ID": 17,
    "DATE": "16-APR-2016",
    "STATUS": "completed"
  },
  "343": {
    "ID": 343,
    "CLIENT_ID": 17,
    "DATE": "15-APR-2016",
    "STATUS": "completed"
  },
  "344": {
    "ID": 344,
    "CLIENT_ID": 18,
    "DATE": "05-JAN-2017",
    "STATUS": "awaiting"
  },
  "345": {
    "ID": 345,
    "CLIENT_ID": 18,
    "DATE": "12-FEB-2016",
    "STATUS": "awaiting"
  },
  "346": {
    "ID": 346,
    "CLIENT_ID": 18,
    "DATE": "21-FEB-2016",
    "STATUS": "awaiting"
  },
  "347": {
    "ID": 347,
    "CLIENT_ID": 18,
    "DATE": "06-JAN-2017",
    "STATUS": "awaiting"
  },
  "348": {
    "ID": 348,
    "CLIENT_ID": 18,
    "DATE": "21-DEC-2016",
    "STATUS": "awaiting"
  },
  "349": {
    "ID": 349,
    "CLIENT_ID": 18,
    "DATE": "29-AUG-2016",
    "STATUS": "awaiting"
  },
  "350": {
    "ID": 350,
    "CLIENT_ID": 18,
    "DATE": "22-JAN-2017",
    "STATUS": "working on"
  },
  "351": {
    "ID": 351,
    "CLIENT_ID": 18,
    "DATE": "04-JAN-2017",
    "STATUS": "working on"
  },
  "352": {
    "ID": 352,
    "CLIENT_ID": 18,
    "DATE": "21-NOV-2016",
    "STATUS": "working on"
  },
  "353": {
    "ID": 353,
    "CLIENT_ID": 18,
    "DATE": "21-SEP-2016",
    "STATUS": "working on"
  },
  "354": {
    "ID": 354,
    "CLIENT_ID": 18,
    "DATE": "26-DEC-2016",
    "STATUS": "working on"
  },
  "355": {
    "ID": 355,
    "CLIENT_ID": 18,
    "DATE": "04-OCT-2016",
    "STATUS": "working on"
  },
  "356": {
    "ID": 356,
    "CLIENT_ID": 18,
    "DATE": "12-OCT-2016",
    "STATUS": "working on"
  },
  "357": {
    "ID": 357,
    "CLIENT_ID": 18,
    "DATE": "22-DEC-2016",
    "STATUS": "refused"
  },
  "358": {
    "ID": 358,
    "CLIENT_ID": 18,
    "DATE": "19-FEB-2016",
    "STATUS": "refused"
  },
  "359": {
    "ID": 359,
    "CLIENT_ID": 18,
    "DATE": "15-MAR-2016",
    "STATUS": "refused"
  },
  "360": {
    "ID": 360,
    "CLIENT_ID": 18,
    "DATE": "27-JUN-2016",
    "STATUS": "refused"
  },
  "361": {
    "ID": 361,
    "CLIENT_ID": 18,
    "DATE": "12-AUG-2016",
    "STATUS": "refused"
  },
  "362": {
    "ID": 362,
    "CLIENT_ID": 19,
    "DATE": "13-OCT-2016",
    "STATUS": "awaiting"
  },
  "363": {
    "ID": 363,
    "CLIENT_ID": 19,
    "DATE": "22-OCT-2016",
    "STATUS": "awaiting"
  },
  "364": {
    "ID": 364,
    "CLIENT_ID": 19,
    "DATE": "28-APR-2016",
    "STATUS": "awaiting"
  },
  "365": {
    "ID": 365,
    "CLIENT_ID": 19,
    "DATE": "01-JAN-2017",
    "STATUS": "awaiting"
  },
  "366": {
    "ID": 366,
    "CLIENT_ID": 19,
    "DATE": "09-MAY-2016",
    "STATUS": "awaiting"
  },
  "367": {
    "ID": 367,
    "CLIENT_ID": 19,
    "DATE": "23-MAR-2016",
    "STATUS": "awaiting"
  },
  "368": {
    "ID": 368,
    "CLIENT_ID": 19,
    "DATE": "19-SEP-2016",
    "STATUS": "working on"
  },
  "369": {
    "ID": 369,
    "CLIENT_ID": 19,
    "DATE": "20-MAR-2016",
    "STATUS": "working on"
  },
  "370": {
    "ID": 370,
    "CLIENT_ID": 19,
    "DATE": "05-MAR-2016",
    "STATUS": "working on"
  },
  "371": {
    "ID": 371,
    "CLIENT_ID": 19,
    "DATE": "30-OCT-2016",
    "STATUS": "working on"
  },
  "372": {
    "ID": 372,
    "CLIENT_ID": 19,
    "DATE": "16-FEB-2016",
    "STATUS": "working on"
  },
  "373": {
    "ID": 373,
    "CLIENT_ID": 19,
    "DATE": "25-JUN-2016",
    "STATUS": "refused"
  },
  "374": {
    "ID": 374,
    "CLIENT_ID": 19,
    "DATE": "26-FEB-2017",
    "STATUS": "refused"
  },
  "375": {
    "ID": 375,
    "CLIENT_ID": 19,
    "DATE": "16-MAR-2016",
    "STATUS": "completed"
  },
  "376": {
    "ID": 376,
    "CLIENT_ID": 19,
    "DATE": "02-DEC-2016",
    "STATUS": "completed"
  },
  "377": {
    "ID": 377,
    "CLIENT_ID": 19,
    "DATE": "10-APR-2016",
    "STATUS": "completed"
  },
  "378": {
    "ID": 378,
    "CLIENT_ID": 19,
    "DATE": "24-MAR-2016",
    "STATUS": "completed"
  },
  "379": {
    "ID": 379,
    "CLIENT_ID": 19,
    "DATE": "12-FEB-2016",
    "STATUS": "completed"
  },
  "380": {
    "ID": 380,
    "CLIENT_ID": 19,
    "DATE": "18-SEP-2016",
    "STATUS": "completed"
  },
  "381": {
    "ID": 381,
    "CLIENT_ID": 19,
    "DATE": "31-MAY-2016",
    "STATUS": "completed"
  },
  "382": {
    "ID": 382,
    "CLIENT_ID": 20,
    "DATE": "05-MAR-2016",
    "STATUS": "awaiting"
  },
  "383": {
    "ID": 383,
    "CLIENT_ID": 20,
    "DATE": "29-APR-2016",
    "STATUS": "awaiting"
  },
  "384": {
    "ID": 384,
    "CLIENT_ID": 20,
    "DATE": "13-MAY-2016",
    "STATUS": "awaiting"
  },
  "385": {
    "ID": 385,
    "CLIENT_ID": 20,
    "DATE": "10-OCT-2016",
    "STATUS": "awaiting"
  },
  "386": {
    "ID": 386,
    "CLIENT_ID": 20,
    "DATE": "21-MAR-2016",
    "STATUS": "awaiting"
  },
  "387": {
    "ID": 387,
    "CLIENT_ID": 20,
    "DATE": "29-JUN-2016",
    "STATUS": "awaiting"
  },
  "388": {
    "ID": 388,
    "CLIENT_ID": 20,
    "DATE": "28-JAN-2017",
    "STATUS": "working on"
  },
  "389": {
    "ID": 389,
    "CLIENT_ID": 20,
    "DATE": "27-JAN-2017",
    "STATUS": "working on"
  },
  "390": {
    "ID": 390,
    "CLIENT_ID": 20,
    "DATE": "21-FEB-2016",
    "STATUS": "working on"
  },
  "391": {
    "ID": 391,
    "CLIENT_ID": 20,
    "DATE": "16-MAR-2016",
    "STATUS": "working on"
  },
  "392": {
    "ID": 392,
    "CLIENT_ID": 20,
    "DATE": "24-JAN-2016",
    "STATUS": "working on"
  },
  "393": {
    "ID": 393,
    "CLIENT_ID": 20,
    "DATE": "27-JAN-2017",
    "STATUS": "refused"
  },
  "394": {
    "ID": 394,
    "CLIENT_ID": 20,
    "DATE": "30-AUG-2016",
    "STATUS": "refused"
  },
  "395": {
    "ID": 395,
    "CLIENT_ID": 20,
    "DATE": "25-JUN-2016",
    "STATUS": "refused"
  },
  "396": {
    "ID": 396,
    "CLIENT_ID": 20,
    "DATE": "09-NOV-2016",
    "STATUS": "refused"
  },
  "397": {
    "ID": 397,
    "CLIENT_ID": 20,
    "DATE": "19-JAN-2016",
    "STATUS": "refused"
  },
  "398": {
    "ID": 398,
    "CLIENT_ID": 20,
    "DATE": "21-FEB-2017",
    "STATUS": "refused"
  },
  "399": {
    "ID": 399,
    "CLIENT_ID": 20,
    "DATE": "23-FEB-2016",
    "STATUS": "completed"
  },
  "400": {
    "ID": 400,
    "CLIENT_ID": 20,
    "DATE": "11-AUG-2016",
    "STATUS": "completed"
  },
  "401": {
    "ID": 401,
    "CLIENT_ID": 20,
    "DATE": "01-NOV-2016",
    "STATUS": "completed"
  },
  "402": {
    "ID": 402,
    "CLIENT_ID": 20,
    "DATE": "31-AUG-2016",
    "STATUS": "completed"
  },
  "403": {
    "ID": 403,
    "CLIENT_ID": 20,
    "DATE": "21-JAN-2016",
    "STATUS": "completed"
  },
  "404": {
    "ID": 404,
    "CLIENT_ID": 20,
    "DATE": "12-APR-2016",
    "STATUS": "completed"
  },
  "405": {
    "ID": 405,
    "CLIENT_ID": 20,
    "DATE": "03-FEB-2016",
    "STATUS": "completed"
  },
  "406": {
    "ID": 406,
    "CLIENT_ID": 20,
    "DATE": "03-MAR-2016",
    "STATUS": "completed"
  },
  "407": {
    "ID": 407,
    "CLIENT_ID": 20,
    "DATE": "21-JAN-2016",
    "STATUS": "completed"
  },
  "408": {
    "ID": 408,
    "CLIENT_ID": 20,
    "DATE": "03-JUN-2016",
    "STATUS": "completed"
  },
  "409": {
    "ID": 409,
    "CLIENT_ID": 20,
    "DATE": "30-JAN-2016",
    "STATUS": "completed"
  },
  "410": {
    "ID": 410,
    "CLIENT_ID": 20,
    "DATE": "21-MAY-2016",
    "STATUS": "completed"
  },
  "411": {
    "ID": 411,
    "CLIENT_ID": 20,
    "DATE": "07-JAN-2016",
    "STATUS": "completed"
  },
  "412": {
    "ID": 412,
    "CLIENT_ID": 20,
    "DATE": "29-JUL-2016",
    "STATUS": "completed"
  },
  "413": {
    "ID": 413,
    "CLIENT_ID": 20,
    "DATE": "30-AUG-2016",
    "STATUS": "completed"
  },
  "414": {
    "ID": 414,
    "CLIENT_ID": 20,
    "DATE": "05-FEB-2016",
    "STATUS": "completed"
  },
  "415": {
    "ID": 415,
    "CLIENT_ID": 20,
    "DATE": "23-MAY-2016",
    "STATUS": "completed"
  },
  "416": {
    "ID": 416,
    "CLIENT_ID": 20,
    "DATE": "27-AUG-2016",
    "STATUS": "completed"
  },
  "417": {
    "ID": 417,
    "CLIENT_ID": 21,
    "DATE": "18-MAY-2016",
    "STATUS": "awaiting"
  },
  "418": {
    "ID": 418,
    "CLIENT_ID": 21,
    "DATE": "22-FEB-2017",
    "STATUS": "awaiting"
  },
  "419": {
    "ID": 419,
    "CLIENT_ID": 21,
    "DATE": "23-APR-2016",
    "STATUS": "awaiting"
  },
  "420": {
    "ID": 420,
    "CLIENT_ID": 21,
    "DATE": "15-FEB-2016",
    "STATUS": "awaiting"
  },
  "421": {
    "ID": 421,
    "CLIENT_ID": 21,
    "DATE": "30-APR-2016",
    "STATUS": "working on"
  },
  "422": {
    "ID": 422,
    "CLIENT_ID": 21,
    "DATE": "20-AUG-2016",
    "STATUS": "working on"
  },
  "423": {
    "ID": 423,
    "CLIENT_ID": 21,
    "DATE": "05-JAN-2016",
    "STATUS": "working on"
  },
  "424": {
    "ID": 424,
    "CLIENT_ID": 21,
    "DATE": "22-JUL-2016",
    "STATUS": "working on"
  },
  "425": {
    "ID": 425,
    "CLIENT_ID": 21,
    "DATE": "24-MAY-2016",
    "STATUS": "working on"
  },
  "426": {
    "ID": 426,
    "CLIENT_ID": 21,
    "DATE": "17-JAN-2016",
    "STATUS": "working on"
  },
  "427": {
    "ID": 427,
    "CLIENT_ID": 21,
    "DATE": "13-NOV-2016",
    "STATUS": "working on"
  },
  "428": {
    "ID": 428,
    "CLIENT_ID": 21,
    "DATE": "12-JUN-2016",
    "STATUS": "refused"
  },
  "429": {
    "ID": 429,
    "CLIENT_ID": 21,
    "DATE": "03-NOV-2016",
    "STATUS": "refused"
  },
  "430": {
    "ID": 430,
    "CLIENT_ID": 21,
    "DATE": "10-DEC-2016",
    "STATUS": "refused"
  },
  "431": {
    "ID": 431,
    "CLIENT_ID": 21,
    "DATE": "18-AUG-2016",
    "STATUS": "refused"
  },
  "432": {
    "ID": 432,
    "CLIENT_ID": 21,
    "DATE": "26-FEB-2016",
    "STATUS": "refused"
  },
  "433": {
    "ID": 433,
    "CLIENT_ID": 21,
    "DATE": "22-NOV-2016",
    "STATUS": "refused"
  },
  "434": {
    "ID": 434,
    "CLIENT_ID": 21,
    "DATE": "30-JAN-2016",
    "STATUS": "refused"
  },
  "435": {
    "ID": 435,
    "CLIENT_ID": 21,
    "DATE": "25-MAR-2016",
    "STATUS": "refused"
  },
  "436": {
    "ID": 436,
    "CLIENT_ID": 21,
    "DATE": "04-OCT-2016",
    "STATUS": "refused"
  },
  "437": {
    "ID": 437,
    "CLIENT_ID": 21,
    "DATE": "25-JAN-2016",
    "STATUS": "refused"
  },
  "438": {
    "ID": 438,
    "CLIENT_ID": 21,
    "DATE": "14-JUL-2016",
    "STATUS": "completed"
  },
  "439": {
    "ID": 439,
    "CLIENT_ID": 21,
    "DATE": "01-JAN-2017",
    "STATUS": "completed"
  },
  "440": {
    "ID": 440,
    "CLIENT_ID": 21,
    "DATE": "23-FEB-2017",
    "STATUS": "completed"
  },
  "441": {
    "ID": 441,
    "CLIENT_ID": 21,
    "DATE": "10-JUL-2016",
    "STATUS": "completed"
  },
  "442": {
    "ID": 442,
    "CLIENT_ID": 21,
    "DATE": "01-AUG-2016",
    "STATUS": "completed"
  },
  "443": {
    "ID": 443,
    "CLIENT_ID": 21,
    "DATE": "29-MAY-2016",
    "STATUS": "completed"
  },
  "444": {
    "ID": 444,
    "CLIENT_ID": 21,
    "DATE": "09-DEC-2016",
    "STATUS": "completed"
  },
  "445": {
    "ID": 445,
    "CLIENT_ID": 21,
    "DATE": "07-MAY-2016",
    "STATUS": "completed"
  },
  "446": {
    "ID": 446,
    "CLIENT_ID": 21,
    "DATE": "28-JUL-2016",
    "STATUS": "completed"
  },
  "447": {
    "ID": 447,
    "CLIENT_ID": 21,
    "DATE": "22-FEB-2016",
    "STATUS": "completed"
  },
  "448": {
    "ID": 448,
    "CLIENT_ID": 21,
    "DATE": "20-DEC-2016",
    "STATUS": "completed"
  },
  "449": {
    "ID": 449,
    "CLIENT_ID": 21,
    "DATE": "11-DEC-2016",
    "STATUS": "completed"
  },
  "450": {
    "ID": 450,
    "CLIENT_ID": 21,
    "DATE": "10-OCT-2016",
    "STATUS": "completed"
  },
  "451": {
    "ID": 451,
    "CLIENT_ID": 21,
    "DATE": "12-JAN-2016",
    "STATUS": "completed"
  },
  "452": {
    "ID": 452,
    "CLIENT_ID": 21,
    "DATE": "28-MAR-2016",
    "STATUS": "completed"
  },
  "453": {
    "ID": 453,
    "CLIENT_ID": 21,
    "DATE": "27-APR-2016",
    "STATUS": "completed"
  },
  "454": {
    "ID": 454,
    "CLIENT_ID": 21,
    "DATE": "12-JUN-2016",
    "STATUS": "completed"
  },
  "455": {
    "ID": 455,
    "CLIENT_ID": 21,
    "DATE": "26-APR-2016",
    "STATUS": "completed"
  },
  "456": {
    "ID": 456,
    "CLIENT_ID": 21,
    "DATE": "08-SEP-2016",
    "STATUS": "completed"
  },
  "457": {
    "ID": 457,
    "CLIENT_ID": 21,
    "DATE": "11-MAR-2016",
    "STATUS": "completed"
  },
  "458": {
    "ID": 458,
    "CLIENT_ID": 21,
    "DATE": "02-FEB-2016",
    "STATUS": "completed"
  },
  "459": {
    "ID": 459,
    "CLIENT_ID": 21,
    "DATE": "22-NOV-2016",
    "STATUS": "completed"
  },
  "460": {
    "ID": 460,
    "CLIENT_ID": 21,
    "DATE": "28-JAN-2016",
    "STATUS": "completed"
  },
  "461": {
    "ID": 461,
    "CLIENT_ID": 21,
    "DATE": "26-SEP-2016",
    "STATUS": "completed"
  },
  "462": {
    "ID": 462,
    "CLIENT_ID": 22,
    "DATE": "04-DEC-2016",
    "STATUS": "awaiting"
  },
  "463": {
    "ID": 463,
    "CLIENT_ID": 22,
    "DATE": "23-NOV-2016",
    "STATUS": "awaiting"
  },
  "464": {
    "ID": 464,
    "CLIENT_ID": 22,
    "DATE": "16-MAR-2016",
    "STATUS": "awaiting"
  },
  "465": {
    "ID": 465,
    "CLIENT_ID": 22,
    "DATE": "30-JUL-2016",
    "STATUS": "awaiting"
  },
  "466": {
    "ID": 466,
    "CLIENT_ID": 22,
    "DATE": "19-JUN-2016",
    "STATUS": "awaiting"
  },
  "467": {
    "ID": 467,
    "CLIENT_ID": 22,
    "DATE": "15-NOV-2016",
    "STATUS": "working on"
  },
  "468": {
    "ID": 468,
    "CLIENT_ID": 22,
    "DATE": "08-JUN-2016",
    "STATUS": "working on"
  },
  "469": {
    "ID": 469,
    "CLIENT_ID": 22,
    "DATE": "16-OCT-2016",
    "STATUS": "working on"
  },
  "470": {
    "ID": 470,
    "CLIENT_ID": 22,
    "DATE": "21-AUG-2016",
    "STATUS": "working on"
  },
  "471": {
    "ID": 471,
    "CLIENT_ID": 22,
    "DATE": "18-APR-2016",
    "STATUS": "working on"
  },
  "472": {
    "ID": 472,
    "CLIENT_ID": 22,
    "DATE": "18-APR-2016",
    "STATUS": "completed"
  },
  "473": {
    "ID": 473,
    "CLIENT_ID": 22,
    "DATE": "16-MAR-2016",
    "STATUS": "completed"
  },
  "474": {
    "ID": 474,
    "CLIENT_ID": 22,
    "DATE": "08-JAN-2016",
    "STATUS": "completed"
  },
  "475": {
    "ID": 475,
    "CLIENT_ID": 22,
    "DATE": "16-FEB-2017",
    "STATUS": "completed"
  },
  "476": {
    "ID": 476,
    "CLIENT_ID": 23,
    "DATE": "02-SEP-2016",
    "STATUS": "awaiting"
  },
  "477": {
    "ID": 477,
    "CLIENT_ID": 23,
    "DATE": "16-FEB-2017",
    "STATUS": "awaiting"
  },
  "478": {
    "ID": 478,
    "CLIENT_ID": 23,
    "DATE": "28-FEB-2016",
    "STATUS": "awaiting"
  },
  "479": {
    "ID": 479,
    "CLIENT_ID": 23,
    "DATE": "14-DEC-2016",
    "STATUS": "awaiting"
  },
  "480": {
    "ID": 480,
    "CLIENT_ID": 23,
    "DATE": "24-FEB-2017",
    "STATUS": "awaiting"
  },
  "481": {
    "ID": 481,
    "CLIENT_ID": 23,
    "DATE": "16-MAY-2016",
    "STATUS": "working on"
  },
  "482": {
    "ID": 482,
    "CLIENT_ID": 23,
    "DATE": "18-JAN-2016",
    "STATUS": "working on"
  },
  "483": {
    "ID": 483,
    "CLIENT_ID": 23,
    "DATE": "22-DEC-2016",
    "STATUS": "working on"
  },
  "484": {
    "ID": 484,
    "CLIENT_ID": 23,
    "DATE": "22-NOV-2016",
    "STATUS": "working on"
  },
  "485": {
    "ID": 485,
    "CLIENT_ID": 23,
    "DATE": "18-FEB-2017",
    "STATUS": "working on"
  },
  "486": {
    "ID": 486,
    "CLIENT_ID": 23,
    "DATE": "20-JUN-2016",
    "STATUS": "refused"
  },
  "487": {
    "ID": 487,
    "CLIENT_ID": 23,
    "DATE": "26-DEC-2016",
    "STATUS": "completed"
  },
  "488": {
    "ID": 488,
    "CLIENT_ID": 23,
    "DATE": "04-DEC-2016",
    "STATUS": "completed"
  },
  "489": {
    "ID": 489,
    "CLIENT_ID": 23,
    "DATE": "20-MAR-2016",
    "STATUS": "completed"
  },
  "490": {
    "ID": 490,
    "CLIENT_ID": 23,
    "DATE": "10-FEB-2017",
    "STATUS": "completed"
  },
  "491": {
    "ID": 491,
    "CLIENT_ID": 23,
    "DATE": "21-JAN-2017",
    "STATUS": "completed"
  },
  "492": {
    "ID": 492,
    "CLIENT_ID": 23,
    "DATE": "30-NOV-2016",
    "STATUS": "completed"
  },
  "493": {
    "ID": 493,
    "CLIENT_ID": 23,
    "DATE": "14-AUG-2016",
    "STATUS": "completed"
  },
  "494": {
    "ID": 494,
    "CLIENT_ID": 23,
    "DATE": "15-SEP-2016",
    "STATUS": "completed"
  },
  "495": {
    "ID": 495,
    "CLIENT_ID": 24,
    "DATE": "27-MAY-2016",
    "STATUS": "awaiting"
  },
  "496": {
    "ID": 496,
    "CLIENT_ID": 24,
    "DATE": "04-APR-2016",
    "STATUS": "awaiting"
  },
  "497": {
    "ID": 497,
    "CLIENT_ID": 24,
    "DATE": "14-JAN-2017",
    "STATUS": "awaiting"
  },
  "498": {
    "ID": 498,
    "CLIENT_ID": 24,
    "DATE": "20-JAN-2017",
    "STATUS": "awaiting"
  },
  "499": {
    "ID": 499,
    "CLIENT_ID": 24,
    "DATE": "04-JUL-2016",
    "STATUS": "working on"
  },
  "500": {
    "ID": 500,
    "CLIENT_ID": 24,
    "DATE": "26-APR-2016",
    "STATUS": "working on"
  },
  "501": {
    "ID": 501,
    "CLIENT_ID": 24,
    "DATE": "15-JUL-2016",
    "STATUS": "working on"
  },
  "502": {
    "ID": 502,
    "CLIENT_ID": 24,
    "DATE": "14-MAY-2016",
    "STATUS": "working on"
  },
  "503": {
    "ID": 503,
    "CLIENT_ID": 24,
    "DATE": "07-APR-2016",
    "STATUS": "working on"
  },
  "504": {
    "ID": 504,
    "CLIENT_ID": 24,
    "DATE": "26-JUL-2016",
    "STATUS": "working on"
  },
  "505": {
    "ID": 505,
    "CLIENT_ID": 24,
    "DATE": "19-SEP-2016",
    "STATUS": "refused"
  },
  "506": {
    "ID": 506,
    "CLIENT_ID": 24,
    "DATE": "23-JUN-2016",
    "STATUS": "refused"
  },
  "507": {
    "ID": 507,
    "CLIENT_ID": 24,
    "DATE": "11-JUN-2016",
    "STATUS": "refused"
  },
  "508": {
    "ID": 508,
    "CLIENT_ID": 24,
    "DATE": "06-FEB-2016",
    "STATUS": "completed"
  },
  "509": {
    "ID": 509,
    "CLIENT_ID": 24,
    "DATE": "29-OCT-2016",
    "STATUS": "completed"
  },
  "510": {
    "ID": 510,
    "CLIENT_ID": 24,
    "DATE": "19-SEP-2016",
    "STATUS": "completed"
  },
  "511": {
    "ID": 511,
    "CLIENT_ID": 24,
    "DATE": "21-FEB-2016",
    "STATUS": "completed"
  },
  "512": {
    "ID": 512,
    "CLIENT_ID": 24,
    "DATE": "03-JAN-2017",
    "STATUS": "completed"
  },
  "513": {
    "ID": 513,
    "CLIENT_ID": 24,
    "DATE": "18-JAN-2016",
    "STATUS": "completed"
  },
  "514": {
    "ID": 514,
    "CLIENT_ID": 24,
    "DATE": "21-MAY-2016",
    "STATUS": "completed"
  },
  "515": {
    "ID": 515,
    "CLIENT_ID": 24,
    "DATE": "17-APR-2016",
    "STATUS": "completed"
  },
  "516": {
    "ID": 516,
    "CLIENT_ID": 24,
    "DATE": "23-JAN-2016",
    "STATUS": "completed"
  },
  "517": {
    "ID": 517,
    "CLIENT_ID": 24,
    "DATE": "03-JAN-2017",
    "STATUS": "completed"
  },
  "518": {
    "ID": 518,
    "CLIENT_ID": 24,
    "DATE": "30-JUN-2016",
    "STATUS": "completed"
  },
  "519": {
    "ID": 519,
    "CLIENT_ID": 24,
    "DATE": "31-JAN-2017",
    "STATUS": "completed"
  },
  "520": {
    "ID": 520,
    "CLIENT_ID": 24,
    "DATE": "28-DEC-2016",
    "STATUS": "completed"
  },
  "521": {
    "ID": 521,
    "CLIENT_ID": 24,
    "DATE": "31-JAN-2016",
    "STATUS": "completed"
  },
  "522": {
    "ID": 522,
    "CLIENT_ID": 24,
    "DATE": "08-JUL-2016",
    "STATUS": "completed"
  },
  "523": {
    "ID": 523,
    "CLIENT_ID": 24,
    "DATE": "26-JAN-2016",
    "STATUS": "completed"
  },
  "524": {
    "ID": 524,
    "CLIENT_ID": 24,
    "DATE": "27-SEP-2016",
    "STATUS": "completed"
  },
  "525": {
    "ID": 525,
    "CLIENT_ID": 24,
    "DATE": "21-JUN-2016",
    "STATUS": "completed"
  },
  "526": {
    "ID": 526,
    "CLIENT_ID": 24,
    "DATE": "27-NOV-2016",
    "STATUS": "completed"
  },
  "527": {
    "ID": 527,
    "CLIENT_ID": 25,
    "DATE": "31-JAN-2016",
    "STATUS": "awaiting"
  },
  "528": {
    "ID": 528,
    "CLIENT_ID": 25,
    "DATE": "01-OCT-2016",
    "STATUS": "awaiting"
  },
  "529": {
    "ID": 529,
    "CLIENT_ID": 25,
    "DATE": "17-JUN-2016",
    "STATUS": "awaiting"
  },
  "530": {
    "ID": 530,
    "CLIENT_ID": 25,
    "DATE": "01-JAN-2016",
    "STATUS": "awaiting"
  },
  "531": {
    "ID": 531,
    "CLIENT_ID": 25,
    "DATE": "10-SEP-2016",
    "STATUS": "awaiting"
  },
  "532": {
    "ID": 532,
    "CLIENT_ID": 25,
    "DATE": "03-FEB-2016",
    "STATUS": "working on"
  },
  "533": {
    "ID": 533,
    "CLIENT_ID": 25,
    "DATE": "10-JUL-2016",
    "STATUS": "working on"
  },
  "534": {
    "ID": 534,
    "CLIENT_ID": 25,
    "DATE": "13-APR-2016",
    "STATUS": "working on"
  },
  "535": {
    "ID": 535,
    "CLIENT_ID": 25,
    "DATE": "30-JAN-2017",
    "STATUS": "working on"
  },
  "536": {
    "ID": 536,
    "CLIENT_ID": 25,
    "DATE": "24-JUN-2016",
    "STATUS": "working on"
  },
  "537": {
    "ID": 537,
    "CLIENT_ID": 25,
    "DATE": "01-JUL-2016",
    "STATUS": "working on"
  },
  "538": {
    "ID": 538,
    "CLIENT_ID": 25,
    "DATE": "04-FEB-2016",
    "STATUS": "working on"
  },
  "539": {
    "ID": 539,
    "CLIENT_ID": 25,
    "DATE": "25-AUG-2016",
    "STATUS": "refused"
  },
  "540": {
    "ID": 540,
    "CLIENT_ID": 25,
    "DATE": "21-DEC-2016",
    "STATUS": "completed"
  },
  "541": {
    "ID": 541,
    "CLIENT_ID": 25,
    "DATE": "30-SEP-2016",
    "STATUS": "completed"
  },
  "542": {
    "ID": 542,
    "CLIENT_ID": 25,
    "DATE": "15-DEC-2016",
    "STATUS": "completed"
  },
  "543": {
    "ID": 543,
    "CLIENT_ID": 26,
    "DATE": "04-JAN-2016",
    "STATUS": "awaiting"
  },
  "544": {
    "ID": 544,
    "CLIENT_ID": 26,
    "DATE": "12-OCT-2016",
    "STATUS": "awaiting"
  },
  "545": {
    "ID": 545,
    "CLIENT_ID": 26,
    "DATE": "26-DEC-2016",
    "STATUS": "awaiting"
  },
  "546": {
    "ID": 546,
    "CLIENT_ID": 26,
    "DATE": "01-APR-2016",
    "STATUS": "awaiting"
  },
  "547": {
    "ID": 547,
    "CLIENT_ID": 26,
    "DATE": "01-MAR-2016",
    "STATUS": "awaiting"
  },
  "548": {
    "ID": 548,
    "CLIENT_ID": 26,
    "DATE": "06-DEC-2016",
    "STATUS": "awaiting"
  },
  "549": {
    "ID": 549,
    "CLIENT_ID": 26,
    "DATE": "16-JUN-2016",
    "STATUS": "awaiting"
  },
  "550": {
    "ID": 550,
    "CLIENT_ID": 26,
    "DATE": "29-MAY-2016",
    "STATUS": "working on"
  },
  "551": {
    "ID": 551,
    "CLIENT_ID": 26,
    "DATE": "14-FEB-2016",
    "STATUS": "working on"
  },
  "552": {
    "ID": 552,
    "CLIENT_ID": 26,
    "DATE": "05-DEC-2016",
    "STATUS": "working on"
  },
  "553": {
    "ID": 553,
    "CLIENT_ID": 26,
    "DATE": "09-DEC-2016",
    "STATUS": "working on"
  },
  "554": {
    "ID": 554,
    "CLIENT_ID": 26,
    "DATE": "28-DEC-2016",
    "STATUS": "completed"
  },
  "555": {
    "ID": 555,
    "CLIENT_ID": 26,
    "DATE": "29-APR-2016",
    "STATUS": "completed"
  },
  "556": {
    "ID": 556,
    "CLIENT_ID": 26,
    "DATE": "14-JAN-2016",
    "STATUS": "completed"
  },
  "557": {
    "ID": 557,
    "CLIENT_ID": 26,
    "DATE": "16-FEB-2016",
    "STATUS": "completed"
  },
  "558": {
    "ID": 558,
    "CLIENT_ID": 27,
    "DATE": "09-MAR-2016",
    "STATUS": "awaiting"
  },
  "559": {
    "ID": 559,
    "CLIENT_ID": 27,
    "DATE": "05-SEP-2016",
    "STATUS": "awaiting"
  },
  "560": {
    "ID": 560,
    "CLIENT_ID": 27,
    "DATE": "16-JUN-2016",
    "STATUS": "awaiting"
  },
  "561": {
    "ID": 561,
    "CLIENT_ID": 27,
    "DATE": "18-JAN-2016",
    "STATUS": "awaiting"
  },
  "562": {
    "ID": 562,
    "CLIENT_ID": 27,
    "DATE": "04-JUN-2016",
    "STATUS": "awaiting"
  },
  "563": {
    "ID": 563,
    "CLIENT_ID": 27,
    "DATE": "16-JUN-2016",
    "STATUS": "awaiting"
  },
  "564": {
    "ID": 564,
    "CLIENT_ID": 27,
    "DATE": "14-JUL-2016",
    "STATUS": "awaiting"
  },
  "565": {
    "ID": 565,
    "CLIENT_ID": 27,
    "DATE": "15-MAY-2016",
    "STATUS": "working on"
  },
  "566": {
    "ID": 566,
    "CLIENT_ID": 27,
    "DATE": "08-APR-2016",
    "STATUS": "working on"
  },
  "567": {
    "ID": 567,
    "CLIENT_ID": 27,
    "DATE": "27-JAN-2017",
    "STATUS": "working on"
  },
  "568": {
    "ID": 568,
    "CLIENT_ID": 27,
    "DATE": "02-SEP-2016",
    "STATUS": "working on"
  },
  "569": {
    "ID": 569,
    "CLIENT_ID": 27,
    "DATE": "17-DEC-2016",
    "STATUS": "working on"
  },
  "570": {
    "ID": 570,
    "CLIENT_ID": 27,
    "DATE": "15-FEB-2016",
    "STATUS": "working on"
  },
  "571": {
    "ID": 571,
    "CLIENT_ID": 27,
    "DATE": "11-JUL-2016",
    "STATUS": "working on"
  },
  "572": {
    "ID": 572,
    "CLIENT_ID": 27,
    "DATE": "11-NOV-2016",
    "STATUS": "refused"
  },
  "573": {
    "ID": 573,
    "CLIENT_ID": 27,
    "DATE": "26-JAN-2017",
    "STATUS": "completed"
  },
  "574": {
    "ID": 574,
    "CLIENT_ID": 27,
    "DATE": "14-JAN-2016",
    "STATUS": "completed"
  },
  "575": {
    "ID": 575,
    "CLIENT_ID": 27,
    "DATE": "18-JAN-2016",
    "STATUS": "completed"
  },
  "576": {
    "ID": 576,
    "CLIENT_ID": 27,
    "DATE": "13-AUG-2016",
    "STATUS": "completed"
  },
  "577": {
    "ID": 577,
    "CLIENT_ID": 27,
    "DATE": "27-FEB-2016",
    "STATUS": "completed"
  },
  "578": {
    "ID": 578,
    "CLIENT_ID": 27,
    "DATE": "18-DEC-2016",
    "STATUS": "completed"
  },
  "579": {
    "ID": 579,
    "CLIENT_ID": 28,
    "DATE": "21-MAR-2016",
    "STATUS": "awaiting"
  },
  "580": {
    "ID": 580,
    "CLIENT_ID": 28,
    "DATE": "20-FEB-2017",
    "STATUS": "awaiting"
  },
  "581": {
    "ID": 581,
    "CLIENT_ID": 28,
    "DATE": "03-AUG-2016",
    "STATUS": "awaiting"
  },
  "582": {
    "ID": 582,
    "CLIENT_ID": 28,
    "DATE": "13-AUG-2016",
    "STATUS": "awaiting"
  },
  "583": {
    "ID": 583,
    "CLIENT_ID": 28,
    "DATE": "09-SEP-2016",
    "STATUS": "awaiting"
  },
  "584": {
    "ID": 584,
    "CLIENT_ID": 28,
    "DATE": "21-JAN-2016",
    "STATUS": "awaiting"
  },
  "585": {
    "ID": 585,
    "CLIENT_ID": 28,
    "DATE": "16-APR-2016",
    "STATUS": "working on"
  },
  "586": {
    "ID": 586,
    "CLIENT_ID": 28,
    "DATE": "23-DEC-2016",
    "STATUS": "working on"
  },
  "587": {
    "ID": 587,
    "CLIENT_ID": 28,
    "DATE": "04-MAY-2016",
    "STATUS": "working on"
  },
  "588": {
    "ID": 588,
    "CLIENT_ID": 28,
    "DATE": "09-MAY-2016",
    "STATUS": "working on"
  },
  "589": {
    "ID": 589,
    "CLIENT_ID": 28,
    "DATE": "24-SEP-2016",
    "STATUS": "working on"
  },
  "590": {
    "ID": 590,
    "CLIENT_ID": 28,
    "DATE": "20-DEC-2016",
    "STATUS": "working on"
  },
  "591": {
    "ID": 591,
    "CLIENT_ID": 28,
    "DATE": "06-AUG-2016",
    "STATUS": "working on"
  },
  "592": {
    "ID": 592,
    "CLIENT_ID": 28,
    "DATE": "27-JUL-2016",
    "STATUS": "completed"
  },
  "593": {
    "ID": 593,
    "CLIENT_ID": 28,
    "DATE": "16-MAR-2016",
    "STATUS": "completed"
  },
  "594": {
    "ID": 594,
    "CLIENT_ID": 28,
    "DATE": "25-DEC-2016",
    "STATUS": "completed"
  },
  "595": {
    "ID": 595,
    "CLIENT_ID": 28,
    "DATE": "04-AUG-2016",
    "STATUS": "completed"
  },
  "596": {
    "ID": 596,
    "CLIENT_ID": 28,
    "DATE": "27-JUL-2016",
    "STATUS": "completed"
  },
  "597": {
    "ID": 597,
    "CLIENT_ID": 29,
    "DATE": "24-JUL-2016",
    "STATUS": "awaiting"
  },
  "598": {
    "ID": 598,
    "CLIENT_ID": 29,
    "DATE": "09-DEC-2016",
    "STATUS": "awaiting"
  },
  "599": {
    "ID": 599,
    "CLIENT_ID": 29,
    "DATE": "07-SEP-2016",
    "STATUS": "awaiting"
  },
  "600": {
    "ID": 600,
    "CLIENT_ID": 29,
    "DATE": "12-FEB-2016",
    "STATUS": "awaiting"
  },
  "601": {
    "ID": 601,
    "CLIENT_ID": 29,
    "DATE": "23-AUG-2016",
    "STATUS": "working on"
  },
  "602": {
    "ID": 602,
    "CLIENT_ID": 29,
    "DATE": "18-FEB-2017",
    "STATUS": "working on"
  },
  "603": {
    "ID": 603,
    "CLIENT_ID": 29,
    "DATE": "15-AUG-2016",
    "STATUS": "working on"
  },
  "604": {
    "ID": 604,
    "CLIENT_ID": 29,
    "DATE": "16-JAN-2016",
    "STATUS": "working on"
  },
  "605": {
    "ID": 605,
    "CLIENT_ID": 29,
    "DATE": "07-OCT-2016",
    "STATUS": "working on"
  },
  "606": {
    "ID": 606,
    "CLIENT_ID": 29,
    "DATE": "27-APR-2016",
    "STATUS": "working on"
  },
  "607": {
    "ID": 607,
    "CLIENT_ID": 29,
    "DATE": "11-JUN-2016",
    "STATUS": "working on"
  },
  "608": {
    "ID": 608,
    "CLIENT_ID": 29,
    "DATE": "30-APR-2016",
    "STATUS": "refused"
  },
  "609": {
    "ID": 609,
    "CLIENT_ID": 29,
    "DATE": "16-OCT-2016",
    "STATUS": "refused"
  },
  "610": {
    "ID": 610,
    "CLIENT_ID": 29,
    "DATE": "18-FEB-2017",
    "STATUS": "refused"
  },
  "611": {
    "ID": 611,
    "CLIENT_ID": 29,
    "DATE": "15-JAN-2017",
    "STATUS": "refused"
  },
  "612": {
    "ID": 612,
    "CLIENT_ID": 29,
    "DATE": "09-OCT-2016",
    "STATUS": "completed"
  },
  "613": {
    "ID": 613,
    "CLIENT_ID": 30,
    "DATE": "09-JAN-2016",
    "STATUS": "awaiting"
  },
  "614": {
    "ID": 614,
    "CLIENT_ID": 30,
    "DATE": "28-MAR-2016",
    "STATUS": "awaiting"
  },
  "615": {
    "ID": 615,
    "CLIENT_ID": 30,
    "DATE": "08-FEB-2016",
    "STATUS": "awaiting"
  },
  "616": {
    "ID": 616,
    "CLIENT_ID": 30,
    "DATE": "05-FEB-2017",
    "STATUS": "awaiting"
  },
  "617": {
    "ID": 617,
    "CLIENT_ID": 30,
    "DATE": "04-AUG-2016",
    "STATUS": "awaiting"
  },
  "618": {
    "ID": 618,
    "CLIENT_ID": 30,
    "DATE": "01-OCT-2016",
    "STATUS": "awaiting"
  },
  "619": {
    "ID": 619,
    "CLIENT_ID": 30,
    "DATE": "14-SEP-2016",
    "STATUS": "awaiting"
  },
  "620": {
    "ID": 620,
    "CLIENT_ID": 30,
    "DATE": "19-MAR-2016",
    "STATUS": "working on"
  },
  "621": {
    "ID": 621,
    "CLIENT_ID": 30,
    "DATE": "27-SEP-2016",
    "STATUS": "working on"
  },
  "622": {
    "ID": 622,
    "CLIENT_ID": 30,
    "DATE": "10-SEP-2016",
    "STATUS": "working on"
  },
  "623": {
    "ID": 623,
    "CLIENT_ID": 30,
    "DATE": "10-JUL-2016",
    "STATUS": "working on"
  },
  "624": {
    "ID": 624,
    "CLIENT_ID": 30,
    "DATE": "29-SEP-2016",
    "STATUS": "working on"
  },
  "625": {
    "ID": 625,
    "CLIENT_ID": 30,
    "DATE": "18-APR-2016",
    "STATUS": "working on"
  },
  "626": {
    "ID": 626,
    "CLIENT_ID": 30,
    "DATE": "26-JAN-2016",
    "STATUS": "refused"
  },
  "627": {
    "ID": 627,
    "CLIENT_ID": 30,
    "DATE": "25-JUN-2016",
    "STATUS": "refused"
  },
  "628": {
    "ID": 628,
    "CLIENT_ID": 30,
    "DATE": "13-APR-2016",
    "STATUS": "refused"
  },
  "629": {
    "ID": 629,
    "CLIENT_ID": 30,
    "DATE": "25-MAY-2016",
    "STATUS": "refused"
  },
  "630": {
    "ID": 630,
    "CLIENT_ID": 30,
    "DATE": "18-AUG-2016",
    "STATUS": "refused"
  },
  "631": {
    "ID": 631,
    "CLIENT_ID": 30,
    "DATE": "06-DEC-2016",
    "STATUS": "completed"
  },
  "632": {
    "ID": 632,
    "CLIENT_ID": 30,
    "DATE": "05-JAN-2016",
    "STATUS": "completed"
  },
  "633": {
    "ID": 633,
    "CLIENT_ID": 30,
    "DATE": "13-FEB-2016",
    "STATUS": "completed"
  },
  "634": {
    "ID": 634,
    "CLIENT_ID": 30,
    "DATE": "29-JAN-2016",
    "STATUS": "completed"
  },
  "635": {
    "ID": 635,
    "CLIENT_ID": 30,
    "DATE": "14-JAN-2017",
    "STATUS": "completed"
  },
  "636": {
    "ID": 636,
    "CLIENT_ID": 30,
    "DATE": "08-MAY-2016",
    "STATUS": "completed"
  },
  "637": {
    "ID": 637,
    "CLIENT_ID": 30,
    "DATE": "23-NOV-2016",
    "STATUS": "completed"
  },
  "638": {
    "ID": 638,
    "CLIENT_ID": 30,
    "DATE": "28-JAN-2017",
    "STATUS": "completed"
  },
  "639": {
    "ID": 639,
    "CLIENT_ID": 30,
    "DATE": "05-JUN-2016",
    "STATUS": "completed"
  },
  "640": {
    "ID": 640,
    "CLIENT_ID": 30,
    "DATE": "13-DEC-2016",
    "STATUS": "completed"
  }
}