{
  "1": {
    "ID": 1,
    "NAME": "Резистор РБ-1",
    "NICKNAME": "Эдельвейс",
    "DONE": 290,
    "ON_DEMAND": 391,
    "VALUE": 50
  },
  "2": {
    "ID": 2,
    "NAME": "Антенна АМ-4",
    "NICKNAME": "Борей",
    "DONE": 292,
    "ON_DEMAND": 407,
    "VALUE": 40
  },
  "3": {
    "ID": 3,
    "NAME": "Транзистор Т28",
    "NICKNAME": "Солярис",
    "DONE": 254,
    "ON_DEMAND": 373,
    "VALUE": 20
  },
  "4": {
    "ID": 4,
    "NAME": "Радиоточка РС",
    "NICKNAME": "Звезда",
    "DONE": 282,
    "ON_DEMAND": 359,
    "VALUE": 280
  },
  "5": {
    "ID": 5,
    "NAME": "Тумблер 5Л",
    "NICKNAME": "Титан",
    "DONE": 248,
    "ON_DEMAND": 445,
    "VALUE": 10
  },
  "6": {
    "ID": 6,
    "NAME": "Отражатель ОБ",
    "NICKNAME": "Байкал",
    "DONE": 280,
    "ON_DEMAND": 378,
    "VALUE": 80
  },
  "7": {
    "ID": 7,
    "NAME": "Концентратор 10К",
    "NICKNAME": "Эльбрус",
    "DONE": 238,
    "ON_DEMAND": 373,
    "VALUE": 50
  },
  "8": {
    "ID": 8,
    "NAME": "Радиостанция РЗ",
    "NICKNAME": "Зенит",
    "DONE": 240,
    "ON_DEMAND": 458,
    "VALUE": 460
  },
  "9": {
    "ID": 9,
    "NAME": "Накопитель 6-1Н",
    "NICKNAME": "Олимп",
    "DONE": 248,
    "ON_DEMAND": 441,
    "VALUE": 40
  },
  "10": {
    "ID": 10,
    "NAME": "Усилитель УС-7",
    "NICKNAME": "Победа",
    "DONE": 332,
    "ON_DEMAND": 355,
    "VALUE": 20
  }
}