{
  "1": {
    "ID": 1,
    "NAME": "Орлов Тимур Викторович",
    "DEPARTMENT_ID": 1,
    "LOGIN": "Тимур",
    "AVATAR": "01",
    "PASSWORD": "Орлов"
  },
  "2": {
    "ID": 2,
    "NAME": "Токарева Людмила Егоровна",
    "DEPARTMENT_ID": 2,
    "LOGIN": "Людмила",
    "AVATAR": "05",
    "PASSWORD": "Токарева"
  },
  "3": {
    "ID": 3,
    "NAME": "Тихомиров Михаил Денисович",
    "DEPARTMENT_ID": 3,
    "LOGIN": "Михаил",
    "AVATAR": "09",
    "PASSWORD": "Тихомиров"
  }
}