{
  "1": {
    "ID": 1,
    "NAME": "Шмидт Иван Петрович",
    "POSITION": "Инженер",
    "DEPARTMENT_ID": 1,
    "LOGIN": "Иван",
    "AVATAR": "02",
    "PASSWORD": "Шмидт"
  },
  "2": {
    "ID": 2,
    "NAME": "Кузнецова Анна Валентиновна",
    "POSITION": "Инженер",
    "DEPARTMENT_ID": 1,
    "LOGIN": "Анна",
    "AVATAR": "03",
    "PASSWORD": "Кузнецова"
  },
  "3": {
    "ID": 3,
    "NAME": "Яковлева Арина Родионовна",
    "POSITION": "Инженер",
    "DEPARTMENT_ID": 1,
    "LOGIN": "Арина",
    "AVATAR": "04",
    "PASSWORD": "Яковлева"
  },
  "4": {
    "ID": 4,
    "NAME": "Сидорова Елена Сергеевна",
    "POSITION": "Инженер",
    "DEPARTMENT_ID": 2,
    "LOGIN": "Елена",
    "AVATAR": "06",
    "PASSWORD": "Сидорова"
  },
  "5": {
    "ID": 5,
    "NAME": "Ковальский Антон Павлович",
    "POSITION": "Инженер",
    "DEPARTMENT_ID": 2,
    "LOGIN": "Антон",
    "AVATAR": "07",
    "PASSWORD": "Ковальский"
  },
  "6": {
    "ID": 6,
    "NAME": "Бусыгин Артём Леонидович",
    "POSITION": "Инженер",
    "DEPARTMENT_ID": 2,
    "LOGIN": "Артём",
    "AVATAR": "08",
    "PASSWORD": "Бусыгин"
  },
  "7": {
    "ID": 7,
    "NAME": "Морозова Татьяна Дмитриевна",
    "POSITION": "Кадровик",
    "DEPARTMENT_ID": 3,
    "LOGIN": "Татьяна",
    "AVATAR": "10",
    "PASSWORD": "Морозова"
  },
  "8": {
    "ID": 8,
    "NAME": "Зуева Наталья Владимировна",
    "POSITION": "Бухгалтер",
    "DEPARTMENT_ID": 3,
    "LOGIN": "Наталья",
    "AVATAR": "11",
    "PASSWORD": "Зуева"
  },
  "9": {
    "ID": 9,
    "NAME": "Иванов Дмитрий Александрович",
    "POSITION": "Системный администратор",
    "DEPARTMENT_ID": 3,
    "LOGIN": "Дмитрий",
    "AVATAR": "12",
    "PASSWORD": "Иванов"
  }
}