{
  "name": "common",
  "mixins": [],
  "dependencies": [
    "is-mobile-plugin",
    "fixed-block",
    "link",
    "btn",
    "field",
    "field-grp",
    "select-block",
    "island",
    "checkbox-block",
    "radio-block",
    "modal-container",
    "modal",
    "field-block",
    "form-modal"
  ]
}