<svg xmlns="http://www.w3.org/2000/svg" width="86" height="100" viewBox="0 0 86 100">
  <title>graphics-worker-09</title>
  <g>
    <polygon points="86 75 43 100 0 75 0 25 43 0 86 25 86 75" fill="#7fd3ef"/>
    <polygon points="43 55.65 34.83 53.04 33.54 55.22 43 81.31 43 55.65" fill="#fdfdfd"/>
    <polygon points="43 55.65 51.17 53.04 52.46 55.22 43 81.31 43 55.65" fill="#fdfdfd"/>
    <polygon points="44.29 60.44 45.58 57.83 43 55.65 40.42 57.83 41.71 60.44 40.12 73.35 43 81.31 45.89 73.35 44.29 60.44" fill="#757090"/>
    <polygon points="70.95 61.3 52.46 55.22 43 81.31 33.54 55.22 15.05 61.3 13.26 82.71 43 100 72.74 82.71 70.95 61.3" fill="#f4f4f4"/>
    <polygon points="55.9 56.35 52.46 55.22 43 81.31 33.54 55.22 30.1 56.35 30.1 63.91 34.83 64.35 32.68 68.26 43 86.96 53.32 68.26 51.17 64.35 55.9 63.91 55.9 56.35" fill="#c4d3da"/>
    <polygon points="43 44.35 34.83 44.35 34.83 53.04 43 55.65 51.17 53.04 51.17 44.35 43 44.35" fill="#edb67f"/>
    <polygon points="50.31 20 43 18.7 35.69 20 31.82 25.65 33.97 44.35 39.13 52.17 43 52.17 46.87 52.17 52.03 44.35 54.18 25.65 50.31 20" fill="#fdc788"/>
    <polygon points="50.31 20 43 18.7 35.69 20 31.82 25.65 32.83 34.44 34.4 30.87 34.83 26.52 38.7 23.91 43 24.78 47.3 23.91 51.17 26.52 51.6 30.87 53.17 34.44 54.18 25.65 50.31 20" fill="#b78b65"/>
    <rect x="39.99" y="46.52" width="6.02" height="0.87" fill="#edb67f"/>
    <g>
      <rect x="41.28" y="35.65" width="3.44" height="0.87" fill="#edb67f"/>
      <polygon points="35.26 34.78 35.69 37.83 41.28 37.83 41.71 34.78 35.26 34.78" fill="#fdfdfd"/>
      <polygon points="50.74 34.78 50.31 37.83 44.72 37.83 44.29 34.78 50.74 34.78" fill="#fdfdfd"/>
      <polygon points="39.99 34.78 35.26 34.78 35.69 37.83 36.98 37.83 39.99 34.78" opacity="0.1" style="isolation: isolate"/>
      <polygon points="49.02 34.78 44.29 34.78 44.72 37.83 46.01 37.83 49.02 34.78" opacity="0.1" style="isolation: isolate"/>
    </g>
    <polygon points="86 75 86 25 43 0 43 100 86 75" opacity="0.1" style="isolation: isolate"/>
  </g>
</svg>
