{
  "name": "callback-modal",
  "mixins": [
    {
      "tag": "div",
      "class": "form-messages",
      "mixin": "form-modal__messages"
    }
  ],
  "dependencies": [
    "form-messages",
    "form-handler"
  ]
}