<svg xmlns="http://www.w3.org/2000/svg" width="200" height="200" viewBox="0 0 200 200">
  <title>product-01</title>
  <g>
    <circle cx="100" cy="40" r="15" fill="#333"/>
    <path d="M160,145a15,15,0,1,0,15,15A15,15,0,0,0,160,145Zm0,20a5,5,0,1,1,5-5A5,5,0,0,1,160,165Z" fill="#333"/>
    <path d="M170,0H30L0,30V170l30,30H170l30-30V30ZM100,105a5,5,0,1,1,5-5A5,5,0,0,1,100,105Zm90,60.86L165.86,190H120V160l-15-7.5V114.13a15,15,0,1,0-10,0V152.5L80,160v30H34.14L10,165.86V34.14L34.14,10H165.86L190,34.14Z" fill="#333"/>
    <path d="M45,85.87V54.13a15,15,0,1,0-10,0V85.87a15,15,0,1,0,10,0Z" fill="#333"/>
    <path d="M165,85.87V54.13a15,15,0,1,0-10,0V85.87a15,15,0,1,0,10,0Z" fill="#333"/>
    <path d="M40,145a15,15,0,1,0,15,15A15,15,0,0,0,40,145Zm0,20a5,5,0,1,1,5-5A5,5,0,0,1,40,165Z" fill="#333"/>
  </g>
</svg>
